<?xml version="1.0" encoding="UTF-8"?>
<svg width="18px" height="15px" viewBox="0 0 18 15" version="1.1" xmlns="http://www.w3.org/2000/svg" xmlns:xlink="http://www.w3.org/1999/xlink">
    <!-- Generator: Sketch 58 (84663) - https://sketch.com -->
    <title>Path</title>
    <desc>Created with Sketch.</desc>
    <g id="final" stroke="none" stroke-width="1" fill="none" fill-rule="evenodd">
        <g id="Dashboard_music_Jungle[meusCursos]" transform="translate(-666.000000, -1379.000000)" fill="#25ae58" fill-rule="nonzero">
            <g id="Cursos" transform="translate(166.000000, 962.000000)">
                <g id="Group-6-Copy-2" transform="translate(285.000000, 87.000000)">
                    <g id="noun_Arrow_2311220-Copy-5" transform="translate(215.000000, 329.000000)">
                        <g id="Group" transform="translate(0.000000, 0.220784)">
                            <path d="M17.7395123,7.35674926 L12.2013485,1.12598002 C11.8447719,0.700750794 11.1399819,0.66287464 10.7264977,1.03300656 C10.3130204,1.40313502 10.2713054,2.10924387 10.65456,2.51059541 L14.6567458,7.01059541 L1.03842692,7.01059541 C0.464919231,7.01059541 0,7.47554926 0,8.04905695 C0,8.62259926 0.464919231,9.08751849 1.03842692,9.08751849 L14.6567458,9.08751849 L10.65456,13.5875185 C10.2713054,13.9888839 10.3231419,14.6937223 10.7366192,15.0638646 C11.1501035,15.4339723 11.8447719,15.3973493 12.2013485,14.9721339 L17.7395123,8.74136464 C18.1011012,8.23760695 18.0722873,7.78535695 17.7395123,7.35674926 L17.7395123,7.35674926 Z" id="Path"></path>
                        </g>
                    </g>
                </g>
            </g>
        </g>
    </g>
</svg>