<?xml version="1.0" encoding="UTF-8"?>
<svg width="22px" height="21px" viewBox="0 0 22 21" version="1.1" xmlns="http://www.w3.org/2000/svg" xmlns:xlink="http://www.w3.org/1999/xlink">
    <!-- Generator: Sketch 58 (84663) - https://sketch.com -->
    <title>profile</title>
    <desc>Created with Sketch.</desc>
    <g id="Wireframe\" stroke="none" stroke-width="1" fill="none" fill-rule="evenodd">
        <g id="Página-do-plano-[-Materiais-]" transform="translate(-1041.000000, -615.000000)" fill="#009C3B" fill-rule="nonzero" stroke="#009C3B">
            <g id="Descrição" transform="translate(1021.000000, 528.000000)">
                <g id="profile" transform="translate(21.000000, 88.000000)">
                    <path d="M9.7826087,10.4347826 C12.6633956,10.4347826 15,8.09455884 15,5.20938704 C15,2.32421525 12.663361,0 9.7826087,0 C6.90185641,0 4.56521739,2.34022377 4.56521739,5.20938704 C4.56521739,8.07855032 6.90182181,10.4347826 9.7826087,10.4347826 Z M9.7826087,1.36245667 C11.8951604,1.36245667 13.6236463,3.09355975 13.6236463,5.20938704 C13.6236463,7.32521434 11.8951604,9.05628277 9.7826087,9.05628277 C7.67005702,9.05628277 5.94157105,7.32517969 5.94157105,5.20935239 C5.94157105,3.0935251 7.67002242,1.36245667 9.7826087,1.36245667 Z" id="Shape"></path>
                    <path d="M0.690718881,18.6956522 L18.8744985,18.6956522 C19.2600176,18.6956522 19.5652174,18.3940987 19.5652174,18.0131854 C19.5652174,14.4420974 16.6256253,11.5217391 12.9952797,11.5217391 L6.5699377,11.5217391 C2.95566981,11.5217391 0,14.4262117 0,18.0131854 C0,18.3940987 0.305199751,18.6956522 0.690718881,18.6956522 Z M6.5699377,12.8866728 L12.9952797,12.8866728 C15.629672,12.8866728 17.7982258,14.8230107 18.1355811,17.3306842 L1.42963633,17.3306842 C1.76695689,14.8388964 3.93554541,12.8866728 6.5699377,12.8866728 Z" id="Shape"></path>
                </g>
            </g>
        </g>
    </g>
</svg>