<?xml version="1.0" encoding="UTF-8"?>
<svg width="159px" height="166px" viewBox="0 0 159 166" version="1.1" xmlns="http://www.w3.org/2000/svg" xmlns:xlink="http://www.w3.org/1999/xlink">
    <!-- Generator: Sketch 57 (83077) - https://sketch.com -->
    <title>Ilustra 02</title>
    <desc>Created with Sketch.</desc>
    <defs>
        <circle id="path-1" cx="79.5" cy="79.5" r="79.5"></circle>
        <polygon id="path-3" points="0 0.602775432 12.4520409 0.602775432 12.4520409 15.1141709 0 15.1141709"></polygon>
        <polygon id="path-5" points="0 0.619916311 12.4520409 0.619916311 12.4520409 15.1291236 0 15.1291236"></polygon>
        <polygon id="path-7" points="0 0.634796053 12.4520409 0.634796053 12.4520409 15.1454621 0 15.1454621"></polygon>
        <polygon id="path-9" points="0 614.154058 114.571824 614.154058 114.571824 0.339899989 0 0.339899989"></polygon>
        <polygon id="path-11" points="0.235228916 0.279085244 57.4033735 0.279085244 57.4033735 96.6881643 0.235228916 96.6881643"></polygon>
        <polygon id="path-13" points="0.295228916 0.33974327 57.4636627 0.33974327 57.4636627 96.7486765 0.295228916 96.7486765"></polygon>
    </defs>
    <g id="Assets-home" stroke="none" stroke-width="1" fill="none" fill-rule="evenodd">
        <g id="Ilustra-02" transform="translate(-1.000000, 0.000000)">
            <g id="ilustra-2">
                <g id="Group-2" transform="translate(0.484375, 0.000000)">
                    <g id="Group-38" transform="translate(0.515625, 0.000000)">
                        <g id="Group-8" transform="translate(0.000000, 7.000000)">
                            <mask id="mask-2" fill="white">
                                <use xlink:href="#path-1"></use>
                            </mask>
                            <use id="Mask" fill="#F2F2F2" xlink:href="#path-1"></use>
                            <g id="Group-57" mask="url(#mask-2)">
                                <g transform="translate(13.000000, -21.000000)">
                                    <g id="Group-38" stroke-width="1" fill-rule="evenodd">
                                        <path d="M62.808805,137.21799 C62.808805,129.77739 64.0832075,121.053047 72.7320755,112.842931 C69.1699686,79.2322192 74.0028616,37.1546429 77.3111006,17.6548868 C60.5189308,22.7862096 51.3601572,7.90500883 45.7642138,15.8583768 C40.1661006,7.90500883 31.007327,22.7862096 14.2158805,17.6548868 C17.5248428,37.1546429 22.3570126,79.2322192 18.7941824,112.842931 C27.4452201,121.053047 28.7174528,129.77739 28.7174528,137.21799 L46.620566,155.294689 L62.808805,137.21799 Z" id="Fill-1" fill="#EB657C"></path>
                                        <polygon id="Fill-3" fill="#EB657C" points="8.1347673 42.1973437 45.7650818 42.1973437 45.765805 47.2571854 8.13693711 47.2571854"></polygon>
                                        <g id="Group-7" transform="translate(0.000000, 37.199355)">
                                            <mask id="mask-4" fill="white">
                                                <use xlink:href="#path-3"></use>
                                            </mask>
                                            <g id="Clip-6"></g>
                                            <path d="M9.95567296,15.1141709 L4.05667925,15.1141709 C-1.38593082,13.2738969 -1.31866667,2.44377881 4.05667925,0.602775432 L9.95567296,0.602775432 C13.2841635,2.44377881 13.2841635,13.2738969 9.95567296,15.1141709" id="Fill-5" fill="#C43452" mask="url(#mask-4)"></path>
                                        </g>
                                        <polygon id="Fill-8" fill="#EB657C" points="8.1347673 66.2824673 45.7650818 66.2824673 45.765805 71.342309 8.13693711 71.342309"></polygon>
                                        <g id="Group-12" transform="translate(0.000000, 61.269526)">
                                            <mask id="mask-6" fill="white">
                                                <use xlink:href="#path-5"></use>
                                            </mask>
                                            <g id="Clip-11"></g>
                                            <path d="M9.95567296,15.1291236 L4.05667925,15.1291236 C-1.38593082,13.2888496 -1.31866667,2.46019029 4.05667925,0.619916311 L9.95567296,0.619916311 C13.2841635,2.46019029 13.2841635,13.2888496 9.95567296,15.1291236" id="Fill-10" fill="#C43452" mask="url(#mask-6)"></path>
                                        </g>
                                        <polygon id="Fill-13" fill="#EB657C" points="8.1347673 90.3690497 45.7650818 90.3675909 45.765805 95.4288914 8.13693711 95.4288914"></polygon>
                                        <g id="Group-17" transform="translate(0.000000, 85.339697)">
                                            <mask id="mask-8" fill="white">
                                                <use xlink:href="#path-7"></use>
                                            </mask>
                                            <g id="Clip-16"></g>
                                            <path d="M9.95567296,15.1454621 L4.05667925,15.1454621 C-1.38593082,13.3051881 -1.31866667,2.47579943 4.05667925,0.634796053 L9.95567296,0.634796053 C13.2841635,2.47579943 13.2841635,13.3051881 9.95567296,15.1454621" id="Fill-15" fill="#C43452" mask="url(#mask-8)"></path>
                                        </g>
                                        <mask id="mask-10" fill="white">
                                            <use xlink:href="#path-9"></use>
                                        </mask>
                                        <g id="Clip-19"></g>
                                        <polygon id="Fill-18" fill="#EB657C" mask="url(#mask-10)" points="45.7656604 47.2570395 81.1480503 47.2570395 81.1480503 42.1971978 45.7656604 42.1971978"></polygon>
                                        <path d="M79.3275063,52.3135259 L85.2272233,52.3135259 C90.6691101,50.473252 90.6018459,39.6431338 85.2272233,37.8021305 L79.3275063,37.8021305 C76.0004623,39.6431338 76.0004623,50.473252 79.3275063,52.3135259" id="Fill-20" fill="#2F4A48" mask="url(#mask-10)"></path>
                                        <polygon id="Fill-21" fill="#EB657C" mask="url(#mask-10)" points="45.7656604 71.3425278 81.1480503 71.3425278 81.1480503 66.2826861 45.7656604 66.2826861"></polygon>
                                        <path d="M79.3275063,76.3986495 L85.2272233,76.3986495 C90.6691101,74.5583756 90.6018459,63.7297162 85.2272233,61.8894423 L79.3275063,61.8894423 C76.0004623,63.7297162 76.0004623,74.5583756 79.3275063,76.3986495" id="Fill-22" fill="#2F4A48" mask="url(#mask-10)"></path>
                                        <polygon id="Fill-23" fill="#EB657C" mask="url(#mask-10)" points="81.1484119 90.3690497 45.766022 90.3675909 45.766022 95.4288914 81.1484119 95.4288914"></polygon>
                                        <path d="M79.3275063,100.485159 L85.2272233,100.485159 C90.6691101,98.644885 90.6018459,87.8154963 85.2272233,85.9744929 L79.3275063,85.9744929 C76.0004623,87.8154963 76.0004623,98.644885 79.3275063,100.485159" id="Fill-24" fill="#2F4A48" mask="url(#mask-10)"></path>
                                        <polygon id="Fill-25" fill="#D9A025" mask="url(#mask-10)" points="26.1346541 464.303677 28.7745912 135.538695 62.8919811 135.538695 65.5977358 464.303677"></polygon>
                                        <polygon id="Fill-26" fill="#EB657C" mask="url(#mask-10)" points="26.2278836 448.973458 65.4392673 448.973458 62.7776321 137.045925 28.8895189 137.045925"></polygon>
                                        <polygon id="Fill-27" fill="#FFE8B5" mask="url(#mask-10)" points="28.773434 150.176933 62.8922704 150.176933 62.9052893 151.64886 28.7611384 151.64886"></polygon>
                                        <polygon id="Fill-28" fill="#FFE8B5" mask="url(#mask-10)" points="28.5742453 172.994871 63.0916038 172.994871 63.1046226 174.466799 28.5612264 174.466799"></polygon>
                                        <polygon id="Fill-29" fill="#FFE8B5" mask="url(#mask-10)" points="28.773434 135.536944 62.8922704 135.536944 62.9052893 137.008872 28.7611384 137.008872"></polygon>
                                        <path d="M30.9284182,614.153839 L30.973261,135.538184 M36.8896132,614.153839 L36.9359025,135.538184 M42.8537013,614.153839 L42.898544,135.538184 M48.8156195,614.153839 L48.8604623,135.538184 M54.7789843,614.153839 L54.8231038,135.538184 M60.7871918,614.153839 L60.7871918,135.538184" id="Stroke-31" stroke="#FFE8B5" stroke-width="0.96" mask="url(#mask-10)"></path>
                                        <path d="M33.9662987,49.9237227 C36.8051352,49.9237227 39.1196006,47.5889161 39.1196006,44.7267539 C39.1196006,41.863133 36.8051352,39.5297852 33.9662987,39.5297852 C31.1289088,39.5297852 28.8129969,41.863133 28.8129969,44.7267539 C28.8129969,47.5889161 31.1289088,49.9237227 33.9662987,49.9237227" id="Fill-32" fill="#C43452" mask="url(#mask-10)"></path>
                                        <path d="M33.9662987,74.0088463 C36.8051352,74.0088463 39.1196006,71.6747691 39.1196006,68.8118775 C39.1196006,65.9504448 36.8051352,63.6156382 33.9662987,63.6156382 C31.1289088,63.6156382 28.8129969,65.9504448 28.8129969,68.8118775 C28.8129969,71.6747691 31.1289088,74.0088463 33.9662987,74.0088463" id="Fill-33" fill="#C43452" mask="url(#mask-10)"></path>
                                        <path d="M33.9662987,98.0946992 C36.8051352,98.0946992 39.1196006,95.7606221 39.1196006,92.8984599 C39.1196006,90.0355684 36.8051352,87.7014912 33.9662987,87.7014912 C31.1289088,87.7014912 28.8129969,90.0355684 28.8129969,92.8984599 C28.8129969,95.7606221 31.1289088,98.0946992 33.9662987,98.0946992" id="Fill-34" fill="#C43452" mask="url(#mask-10)"></path>
                                        <path d="M57.5601761,49.9237227 C60.3997358,49.9237227 62.713478,47.5889161 62.713478,44.7267539 C62.713478,41.863133 60.3997358,39.5297852 57.5601761,39.5297852 C54.7227862,39.5297852 52.4068742,41.863133 52.4068742,44.7267539 C52.4068742,47.5889161 54.7227862,49.9237227 57.5601761,49.9237227" id="Fill-35" fill="#C43452" mask="url(#mask-10)"></path>
                                        <path d="M57.5601761,74.0088463 C60.3997358,74.0088463 62.713478,71.6747691 62.713478,68.8118775 C62.713478,65.9504448 60.3997358,63.6156382 57.5601761,63.6156382 C54.7227862,63.6156382 52.4068742,65.9504448 52.4068742,68.8118775 C52.4068742,71.6747691 54.7227862,74.0088463 57.5601761,74.0088463" id="Fill-36" fill="#C43452" mask="url(#mask-10)"></path>
                                        <path d="M57.5601761,98.0946992 C60.3997358,98.0946992 62.713478,95.7606221 62.713478,92.8984599 C62.713478,90.0355684 60.3997358,87.7014912 57.5601761,87.7014912 C54.7227862,87.7014912 52.4068742,90.0355684 52.4068742,92.8984599 C52.4068742,95.7606221 54.7227862,98.0946992 57.5601761,98.0946992" id="Fill-37" fill="#C43452" mask="url(#mask-10)"></path>
                                    </g>
                                    <g id="Group-49" stroke-width="1" fill-rule="evenodd" transform="translate(55.000000, 0.000000)">
                                        <g id="Group-41" transform="translate(2.168675, 2.187188)">
                                            <mask id="mask-12" fill="white">
                                                <use xlink:href="#path-11"></use>
                                            </mask>
                                            <g id="Clip-40"></g>
                                            <path d="M48.7289639,96.6881643 L8.90992771,96.6881643 C4.13884337,96.6881643 0.235228916,92.7512251 0.235228916,87.9394105 L0.235228916,9.02783898 C0.235228916,4.21602443 4.13884337,0.279085244 8.90992771,0.279085244 L48.7289639,0.279085244 C53.5000482,0.279085244 57.4036627,4.21602443 57.4036627,9.02783898 L57.4036627,87.9394105 C57.4036627,92.7512251 53.5000482,96.6881643 48.7289639,96.6881643" id="Fill-39" fill="#088744" mask="url(#mask-12)"></path>
                                        </g>
                                        <g id="Group-44">
                                            <mask id="mask-14" fill="white">
                                                <use xlink:href="#path-13"></use>
                                            </mask>
                                            <g id="Clip-43"></g>
                                            <path d="M48.7889639,96.7486765 L8.96992771,96.7486765 C4.19884337,96.7486765 0.295228916,92.8117373 0.295228916,87.9999227 L0.295228916,9.0883512 C0.295228916,4.27653664 4.19884337,0.339597458 8.96992771,0.339597458 L48.7889639,0.339597458 C53.5600482,0.339597458 57.4636627,4.27653664 57.4636627,9.0883512 L57.4636627,87.9999227 C57.4636627,92.8117373 53.5600482,96.7486765 48.7889639,96.7486765" id="Fill-42" fill="#0AAF5E" mask="url(#mask-14)"></path>
                                        </g>
                                        <path d="M42.2285783,85.1740753 L15.9991807,85.1740753 C11.2273735,85.1740753 7.32448193,81.2371361 7.32448193,76.4253215 L7.32448193,20.4303814 C7.32448193,15.6185668 11.2273735,11.6816276 15.9991807,11.6816276 L42.2285783,11.6816276 C46.9996627,11.6816276 50.9032771,15.6185668 50.9032771,20.4303814 L50.9032771,76.4253215 C50.9032771,81.2371361 46.9996627,85.1740753 42.2285783,85.1740753" id="Fill-45" fill="#FEFEFE"></path>
                                        <path d="M29.2094458,58.8958082 C29.7595663,58.9118476 29.7595663,58.9118476 29.7667952,60.100949 C29.6301687,60.1213628 29.5455904,60.21687 29.5506506,60.5624458 C29.554988,60.9000019 29.6590843,60.9051053 29.7667952,60.9342678 C29.7660723,62.5666395 29.7754699,64.1997402 29.7581205,65.8313827 C29.7516145,66.403697 29.8340241,66.6457459 30.1058313,66.5553421 C30.4051084,66.4554605 30.5330602,66.7120906 30.4896867,67.3543949 C30.4759518,67.5541582 30.4788434,67.7633992 30.4896867,67.9646205 C30.5026988,68.2190634 30.421012,68.6040086 30.6096867,68.6645208 C30.7781205,68.7192005 31.001494,68.8810525 31.1164337,68.5311023 C31.227759,68.19063 31.3586024,68.2526003 31.494506,68.2496841 C31.9398072,68.2387481 32.3858313,68.225625 32.8289639,68.3867479 C33.0487229,68.4662157 33.2070361,68.3619597 33.1817349,67.7582957 C33.1578795,67.2129568 33.3660723,67.3456462 33.5113735,67.3303359 C33.6971566,67.3121093 33.8959518,67.4404244 33.9241446,66.7901003 C33.9386024,66.4649383 34.4048675,66.4277561 34.5422169,66.7791644 C34.628241,67.0037157 34.7142651,67.0124645 34.8219759,67.0204842 C34.9940241,67.0336073 35.148,66.9497651 35.2528193,67.4608381 C35.3294458,67.8319311 35.6041446,67.6139413 35.7892048,67.6088379 C35.9713735,67.6030054 35.9417349,67.2610749 35.9316145,67.0270457 C35.9070361,66.4919136 36.0328193,66.3417267 36.2540241,66.4102586 C36.5352289,66.4970171 36.6313735,66.2236185 36.5894458,65.671718 C36.5417349,65.0286846 36.6718554,64.7749707 36.9704096,64.8755814 C37.2422169,64.9667142 37.3506506,64.7232073 37.3159518,64.151622 C37.301494,63.9256125 37.3246265,63.6901252 37.3108916,63.4648448 C37.2776386,62.9020083 37.3759518,62.6410039 37.6528193,62.7314077 C37.914506,62.8174371 37.9853494,62.5513291 37.9737831,62.0336945 C37.9578795,61.2441195 37.9802892,60.4516282 37.9658313,59.6620532 C37.9578795,59.1888915 38.0417349,58.9942317 38.2600482,59.0591183 C38.5390843,59.1422314 38.6706506,58.9242417 38.6251084,58.3038092 C38.5846265,57.7373274 38.6706506,57.4938204 38.9757108,57.4974657 C39.2966747,57.5018401 39.3017349,57.8707459 39.2771566,58.3271392 C39.2373976,59.0583892 39.3133012,59.520615 39.7311325,59.3624084 C39.9675181,59.2720046 40.008,59.5731076 40.0065542,59.9996093 C39.9986024,61.4278433 40.0130602,62.8568065 39.9978795,64.2843114 C39.9920964,64.8281923 40.0499277,65.1241918 40.3354699,65.0301427 C40.5920964,64.9455714 40.688241,65.1927237 40.6586024,65.7198361 C40.6455904,65.9465747 40.6470361,66.1813329 40.6593253,66.4080714 C40.6730602,66.6625143 40.5855904,67.0481886 40.7641446,67.1283855 C40.9361928,67.2049371 41.1292048,67.1947302 41.301253,67.1130751 C41.427759,67.0525629 41.3901687,66.716465 41.3786024,66.5057658 C41.3453494,65.9181412 41.4660723,65.6906736 41.7292048,65.7971168 C41.9706506,65.8940821 42.1296867,65.3837382 42.3790843,65.4646641 C42.5641446,65.5244473 42.721012,65.5113242 42.6913735,66.0377075 C42.6689639,66.4445246 42.7716145,66.6333518 42.9472771,66.5458643 C43.2624578,66.3891158 43.5060723,66.9818438 43.8154699,66.8710263 C43.9361928,66.8280116 44.0778795,66.8739425 44.0663133,66.4977461 C44.0467952,65.892624 44.2369157,65.9217865 44.4234217,65.9516781 C44.6554699,65.9888603 44.8304096,65.939284 44.7986024,65.2867728 C44.7761928,64.8034042 44.9641446,64.8646454 45.1022169,64.8821429 C45.3263133,64.9105764 45.4875181,64.8398573 45.4528193,64.2412967 C45.4289639,63.8352087 45.5634217,63.7601153 45.708,63.8089625 C46.328241,64.0174745 46.9708916,63.8651003 47.5730602,64.3798187 C47.9439036,64.6962319 48.1383614,64.3856512 48.1398072,63.5588939 C48.1398072,62.9982446 48.1470361,62.4361372 48.1376386,61.876217 C48.1289639,61.3862868 48.2243855,61.1318438 48.4571566,61.2076664 C48.8092048,61.3214002 48.908241,60.9736372 48.8641446,60.3058157 C48.8540241,60.1556287 48.8590843,59.9988802 48.8634217,59.8472352 C48.8757108,59.4958269 48.7933012,59.0270395 49.101253,59.0540148 C49.3152289,59.0729705 49.5595663,58.9417392 49.5205301,59.7021517 C49.4952289,60.181875 49.6759518,60.1658356 49.8161928,60.1220918 C50.1863133,60.0047127 50.2716145,60.367057 50.2441446,61.0713316 C50.2173976,61.7559216 50.2607711,62.4529057 50.2311325,63.1353084 C50.201494,63.8366669 50.3323373,64.0634054 50.6424578,63.9664401 C50.7255904,63.9409229 50.8116145,63.9591494 50.8961928,63.9569622 C50.8961928,69.1646579 50.8911325,74.3730826 50.9034514,79.5807783 C50.9048675,80.1057035 50.8542651,80.2077723 50.6055904,80.2077723 C36.1788434,80.1917329 21.7513735,80.1931911 7.32462651,80.1931911 L7.32462651,63.3445495 C7.97884337,63.351111 7.97884337,63.351111 7.97884337,61.9790148 C7.97884337,60.8992728 7.97812048,60.8839625 8.50438554,60.7527312 C8.66703614,60.7126327 8.71619277,60.5515098 8.70173494,60.2569685 C8.67643373,59.7612058 8.79571084,59.6394523 9.00390361,59.6693438 C9.16872289,59.6926739 9.30607229,59.706526 9.39715663,59.2319062 C9.468,58.8622713 9.72390361,59.0591183 9.89450602,59.0919261 C10.047759,59.1210886 10.0224578,59.4433344 10.0072771,59.6467429 C9.94366265,60.4545445 10.1128193,60.7068002 10.4692048,60.5901502 C10.6766747,60.5223473 10.7453494,60.7461696 10.7373976,61.1675679 C10.7265542,61.7792516 10.7330602,62.3923934 10.7352289,63.0055353 C10.7366747,63.3029929 10.7048675,63.6952287 10.9318554,63.6398199 C11.0937831,63.5997215 11.3453494,63.9336322 11.3916145,63.2548748 C11.3995663,63.1265597 11.408241,62.9508556 11.4689639,62.9399196 C11.8781205,62.8662843 12.2923373,62.8072302 12.6964337,62.9566881 C12.8193253,63.0033481 12.774506,63.4108942 12.7651084,63.6500268 C12.7455904,64.1756811 12.7998072,64.500114 13.0954699,64.4155427 C13.2740241,64.3652374 13.4453494,64.3885674 13.4337831,64.9302611 C13.4323373,64.9915024 13.4626988,65.103049 13.4865542,65.1132559 C14.1501687,65.4136297 14.768241,66.2367417 15.488241,65.8999146 C15.5352289,65.8780427 15.5793253,65.8284665 15.6263133,65.811698 C16.1836627,65.6155801 16.1836627,65.6170383 16.1836627,64.3769024 C16.1836627,63.9934154 16.1966747,63.6084702 16.181494,63.2278994 C16.1511325,62.5134179 16.174988,61.9469361 16.6340241,62.1095171 C16.8263133,62.1773199 16.8393253,61.8674682 16.8393253,61.56272 C16.8371566,60.413717 16.8494458,59.264714 16.8335422,58.1171691 C16.8255904,57.5740173 16.8855904,57.2678109 17.1711325,57.3713379 C17.5029398,57.4923623 17.6048675,57.1708456 17.5643855,56.5161472 C17.5463133,56.2405614 17.5607711,55.9562269 17.561494,55.6748087 C17.5622169,54.7787905 17.7790843,54.4755004 18.1708916,54.8524258 C18.2576386,54.935539 18.3284819,55.1046816 18.4318554,55.063125 C18.8258313,54.9063765 18.9060723,55.3219423 18.8757108,56.049547 C18.8504096,56.6831026 18.8786024,57.3254069 18.867759,57.9626078 C18.8605301,58.394213 18.908241,58.6770894 19.1446265,58.5983506 C19.5270361,58.4714936 19.5935422,58.9585076 19.5935422,59.5942504 C19.5920964,61.1770457 19.6022169,62.7598411 19.587759,64.3419074 C19.5841446,64.8748523 19.6636627,65.1110687 19.9173976,65.0279555 C20.2036627,64.9346355 20.2860723,65.2299059 20.2506506,65.7737868 C20.2152289,66.3286036 20.3142651,66.4642092 20.5911325,66.6173124 C20.9605301,66.820721 21.3624578,66.68147 21.7202892,67.2304543 C21.9299277,67.5534291 22.3267952,67.2763852 22.5913735,67.5126016 C22.9586024,67.842138 23.4096867,67.6503944 23.7125783,68.4239301 C23.8333012,68.7323237 24.1101687,68.6528558 24.2887229,68.4326788 C24.4043855,68.2919697 24.5099277,68.2168762 24.6263133,68.2526003 C24.9595663,68.3524819 25.0976386,68.0805415 25.0455904,67.3711634 C25.0311325,67.1721292 25.0325783,66.960701 25.0455904,66.7602087 C25.0651084,66.4853521 24.9631807,66.0333331 25.1641446,65.9939637 C25.3434217,65.9596978 25.6094458,65.6316195 25.7084819,66.3358942 C25.7569157,66.6785537 25.9108916,66.5721105 26.0193253,66.554613 C26.2658313,66.5123274 26.3930602,66.6829281 26.3496867,67.2348286 C26.2954699,67.9208767 26.4884819,67.9383743 26.7357108,67.9602461 C27.0118554,67.9843052 27.0863133,67.7801676 27.0826988,67.2144149 C27.0667952,65.1220046 27.074747,63.0288653 27.0733012,60.936455 C27.234506,60.9415584 27.3371566,60.8285537 27.2995663,60.4348598 C27.4239036,60.4013229 27.5670361,60.5398448 27.6660723,60.2664463 C28.0340241,61.1369473 28.4757108,60.9955091 28.9325783,60.6543077 C28.941253,60.7512731 28.9535422,60.8241793 28.9528193,60.8970856 C28.9325783,63.8563516 28.9087229,66.8148885 28.8942651,69.7741544 C28.8928193,70.1051489 28.8219759,70.2553359 28.7070361,70.4361434 C28.4113735,70.9005565 28.3752289,71.6427424 28.6007711,72.160377 C28.8226988,72.6692628 29.181253,72.6678047 29.4031807,72.1560026 C29.6308916,71.6332646 29.5933012,70.9282608 29.2969157,70.4339563 C29.1978795,70.2699171 29.1176386,70.1488927 29.1205301,69.8368538 C29.154506,66.1900816 29.181253,62.5425804 29.2094458,58.8958082" id="Fill-47" fill="#CDF8D9"></path>
                                    </g>
                                    <text id="E" font-family="Skia-Regular, Skia" font-size="40.1017" font-weight="normal">
                                        <tspan x="74" y="60" fill="#000000">E</tspan>
                                    </text>
                                    <text id="4" font-family="Skia-Regular, Skia" font-size="14.2368" font-weight="normal">
                                        <tspan x="89" y="60" fill="#000000">4</tspan>
                                    </text>
                                    <g id="Group-56" stroke-width="1" fill-rule="evenodd" transform="translate(62.000000, 19.000000)">
                                        <path d="M21.1357967,57.8801348 L21.1357967,57.8801348 C20.8790098,57.8801348 20.6683869,57.6674826 20.6683869,57.4082217 L20.6683869,0.758993478 C20.6683869,0.499732609 20.8790098,0.287080435 21.1357967,0.287080435 C21.3925836,0.287080435 21.6024852,0.499732609 21.6024852,0.758993478 L21.6024852,57.4082217 C21.6024852,57.6674826 21.3925836,57.8801348 21.1357967,57.8801348" id="Fill-50" fill="#4B5868"></path>
                                        <path d="M23.0510951,54.0582217 C24.2383738,55.2569391 24.2383738,57.1992109 23.0510951,58.3979283 C21.8638164,59.5959174 19.9400787,59.5959174 18.7528,58.3979283 C17.5662426,57.1992109 17.5662426,55.2569391 18.7528,54.0582217 C19.9400787,52.8595043 21.8638164,52.8595043 23.0510951,54.0582217" id="Fill-52" fill="#4B5868"></path>
                                        <path d="M0.0952131148,60.4802446 C0.0952131148,60.7125598 0.462360656,65.9130707 3.78544262,66.1453859 C7.10852459,66.3777011 37.9683934,66.3777011 37.9683934,66.3777011 C37.9683934,66.3777011 43.5787541,65.9050598 43.5787541,61.1852011 C43.5787541,56.4638859 0.561901639,60.2406467 0.561901639,60.2406467" id="Fill-54" fill="#CDF8D9"></path>
                                    </g>
                                </g>
                            </g>
                        </g>
                        <g id="Group-10" transform="translate(65.000000, 0.000000)">
                            <path d="M57.5049447,111.0832 L12.2310553,111.0832 C6.80637487,111.0832 2.368,106.632101 2.368,101.191869 L2.368,11.9745315 C2.368,6.53429916 6.80637487,2.0832 12.2310553,2.0832 L57.5049447,2.0832 C62.9296251,2.0832 67.368,6.53429916 67.368,11.9745315 L67.368,101.191869 C67.368,106.632101 62.9296251,111.0832 57.5049447,111.0832" id="Fill-39" fill="#088744"></path>
                            <path d="M55.5049447,109.0832 L10.2310553,109.0832 C4.80637487,109.0832 0.368,104.632101 0.368,99.1918685 L0.368,9.97453147 C0.368,4.53429916 4.80637487,0.0832 10.2310553,0.0832 L55.5049447,0.0832 C60.9296251,0.0832 65.368,4.53429916 65.368,9.97453147 L65.368,99.1918685 C65.368,104.632101 60.9296251,109.0832 55.5049447,109.0832" id="Fill-42" fill="#0AAF5E"></path>
                            <path d="M47.6141681,96.0832 L18.1218319,96.0832 C12.7564115,96.0832 8.368,91.6369479 8.368,86.2026397 L8.368,22.9637603 C8.368,17.5294521 12.7564115,13.0832 18.1218319,13.0832 L47.6141681,13.0832 C52.9787757,13.0832 57.368,17.5294521 57.368,22.9637603 L57.368,86.2026397 C57.368,91.6369479 52.9787757,96.0832 47.6141681,96.0832" id="Fill-45" fill="#FEFEFE"></path>
                            <path d="M32.9752754,65.8592755 C33.5938304,65.8775064 33.5938304,65.8775064 33.6019586,67.2290807 C33.4483359,67.2522837 33.3532361,67.3608406 33.3589258,67.7536341 C33.3638027,68.1373122 33.4808486,68.1431129 33.6019586,68.17626 C33.6011458,70.0316708 33.6117125,71.8879102 33.5922048,73.7424923 C33.5848894,74.3930048 33.6775508,74.668126 33.9831706,74.5653699 C34.3196776,74.4518409 34.4635465,74.7435357 34.4147774,75.4736013 C34.3993338,75.7006591 34.4025851,75.9384898 34.4147774,76.167205 C34.4294081,76.4564138 34.3375596,76.8939559 34.5497053,76.9627362 C34.7390921,77.0248871 34.9902531,77.2088537 35.1194913,76.8110881 C35.2446654,76.4240953 35.3917856,76.494533 35.5445955,76.4912183 C36.0452918,76.4787881 36.546801,76.4638719 37.0450589,76.6470098 C37.2921558,76.7373357 37.4701631,76.6188347 37.4417145,75.9326891 C37.4148915,75.3128377 37.6489833,75.4636571 37.8123598,75.4462549 C38.0212543,75.4255379 38.2447794,75.5713853 38.2764794,74.8322043 C38.2927357,74.4626137 38.8170038,74.4203511 38.9714394,74.8197741 C39.0681648,75.075007 39.1648903,75.0849512 39.2860003,75.0940666 C39.4794511,75.1089828 39.6525815,75.0136848 39.7704403,75.5945883 C39.856599,76.0163856 40.1654702,75.7686108 40.3735518,75.76281 C40.5783821,75.7561806 40.5450565,75.3675305 40.5336771,75.1015247 C40.5060412,74.4932748 40.6474717,74.3225671 40.8961942,74.4004629 C41.2123807,74.4990756 41.3204856,74.1883212 41.2733422,73.5610117 C41.2196961,72.8301175 41.3660035,72.5417374 41.7016976,72.656095 C42.0073175,72.7596798 42.1292403,72.4829012 42.090225,71.8332174 C42.0739686,71.5763272 42.0999788,71.3086641 42.0845353,71.0526025 C42.0471456,70.4128628 42.157689,70.116196 42.4689986,70.2189521 C42.763239,70.3167361 42.8428952,70.0142685 42.8298901,69.4259069 C42.8120081,68.5284483 42.8372055,67.627675 42.8209491,66.7302164 C42.8120081,66.1924041 42.9062951,65.971147 43.1517663,66.0448994 C43.4655144,66.1393687 43.6134474,65.8915939 43.5622398,65.1863887 C43.5167219,64.5425056 43.6134474,64.2657271 43.9564569,64.2698705 C44.3173484,64.2748425 44.3230382,64.6941538 44.2954023,65.2129064 C44.2506973,66.0440707 44.3360433,66.5694528 44.8058525,66.3896296 C45.0716443,66.2868735 45.1171621,66.6291176 45.1155365,67.1138944 C45.1065955,68.7372753 45.1228518,70.3614848 45.1057826,71.9840369 C45.0992801,72.6022309 45.1643056,72.9386743 45.485369,72.8317748 C45.7739197,72.7356481 45.8820246,73.0165701 45.848699,73.6157045 C45.8340683,73.8734235 45.8356939,74.1402579 45.8495118,74.3979768 C45.8649554,74.6871856 45.7666043,75.1255564 45.9673705,75.216711 C46.1608214,75.3037222 46.377844,75.2921207 46.5712949,75.1993088 C46.7135382,75.1305285 46.6712716,74.7485078 46.6582665,74.5090197 C46.6208768,73.841105 46.7566176,73.5825574 47.0524836,73.7035444 C47.3239651,73.8137586 47.5027852,73.2336838 47.7832077,73.3256671 C47.9912893,73.3936187 48.1676709,73.3787025 48.1343454,73.9770082 C48.109148,74.4394107 48.2245682,74.6540384 48.4220832,74.554597 C48.7764722,74.3764312 49.0503921,75.0501467 49.3982785,74.9241876 C49.5340193,74.8752955 49.6933318,74.9275023 49.6803267,74.4999043 C49.6583806,73.8121013 49.8721519,73.8452484 50.0818591,73.8792242 C50.342774,73.9214868 50.5394761,73.8651367 50.5037121,73.1234696 C50.4785147,72.5740559 50.6898476,72.6436648 50.845096,72.6635531 C51.0970698,72.6958716 51.2783284,72.6154898 51.2393131,71.9351449 C51.21249,71.4735711 51.3636743,71.3882172 51.5262381,71.4437386 C52.2236366,71.6807406 52.9462325,71.5075469 53.6233105,72.0925938 C54.0402865,72.4522401 54.2589348,72.0992232 54.2605604,71.159502 C54.2605604,70.5222483 54.2686886,69.8833374 54.258122,69.2469124 C54.2483681,68.6900406 54.3556602,68.4008319 54.6173879,68.4870144 C55.0132306,68.6162882 55.1245868,68.2210087 55.0750048,67.4619393 C55.0636254,67.2912316 55.0693151,67.1130658 55.074192,66.9407007 C55.0880099,66.5412777 54.9953486,66.0084376 55.3416094,66.0390987 C55.5822037,66.0606443 55.8569365,65.9114822 55.8130443,66.7757937 C55.7845956,67.321064 55.9878003,67.3028331 56.1454871,67.2531124 C56.5616503,67.1196952 56.657563,67.5315483 56.6266758,68.3320516 C56.5966016,69.1101805 56.6453707,69.902397 56.6120451,70.6780399 C56.5787195,71.4752284 56.7258397,71.7329474 57.074539,71.6227332 C57.1680131,71.5937294 57.2647386,71.6144464 57.3598384,71.6119603 C57.3598384,77.5312095 57.3541486,83.4512874 57.368,89.3705366 C57.3695922,89.967185 57.3126949,90.0832 57.0330852,90.0832 C40.8116611,90.0649691 24.5894241,90.0666264 8.368,90.0666264 L8.368,70.9158705 C9.10360098,70.9233287 9.10360098,70.9233287 9.10360098,69.3637561 C9.10360098,68.1364835 9.10278817,68.1190812 9.69452023,67.9699191 C9.87740445,67.9243418 9.93267613,67.7412039 9.91641975,67.4064179 C9.88797109,66.8429166 10.0220862,66.7045273 10.256178,66.7385032 C10.4415007,66.7650209 10.5959362,66.7807658 10.6983514,66.2412962 C10.7780076,65.8211563 11.0657455,66.0448994 11.2575707,66.0821899 C11.4298883,66.1153371 11.4014396,66.4816129 11.3843704,66.7128141 C11.3128424,67.6309897 11.503042,67.9177124 11.9037616,67.7851239 C12.1370406,67.7080568 12.2142584,67.962461 12.2053174,68.4414371 C12.1931251,69.1366982 12.2004405,69.8336167 12.2028789,70.5305351 C12.2045046,70.8686359 12.1687406,71.3144648 12.4239656,71.2514853 C12.6060371,71.205908 12.888898,71.5854426 12.9409184,70.8139431 C12.9498594,70.6680957 12.9596132,70.4683843 13.02789,70.4559541 C13.4879454,70.3722576 13.9536906,70.3051346 14.4080563,70.4750137 C14.5462354,70.5280491 14.4958407,70.9912803 14.485274,71.2630868 C14.4633279,71.8605638 14.5242893,72.2293257 14.8567322,72.133199 C15.0574985,72.0760202 15.2501365,72.1025379 15.2371314,72.7182459 C15.2355058,72.7878549 15.2696442,72.9146426 15.2964672,72.9262441 C16.0426348,73.2676596 16.7375948,74.2032374 17.5471623,73.820388 C17.5999956,73.7955277 17.6495775,73.7391776 17.7024107,73.720118 C18.329094,73.4972035 18.329094,73.4988609 18.329094,72.089279 C18.329094,71.6533943 18.3437247,71.2158521 18.3266555,70.783282 C18.2925171,69.9711773 18.3193402,69.3272942 18.8354801,69.5120895 C19.0516899,69.5891566 19.0663206,69.2369683 19.0663206,68.8905807 C19.0638822,67.5845837 19.0777001,66.2785867 19.0598181,64.974247 C19.0508771,64.3568817 19.118341,64.0088368 19.4394044,64.1265091 C19.8124882,64.2640697 19.9270957,63.8986226 19.8815778,63.1544694 C19.8612574,62.841229 19.8775137,62.5180445 19.8783266,62.1981747 C19.8791394,61.179729 20.122985,60.8349988 20.5635328,61.2634255 C20.661071,61.3578949 20.7407273,61.5501482 20.8569604,61.5029136 C21.2999466,61.3247477 21.3901695,61.7970944 21.3560311,62.6241153 C21.3275824,63.3442368 21.3592824,64.0743024 21.3470901,64.7985672 C21.3389619,65.2891448 21.3926079,65.610672 21.6583997,65.5211747 C22.0883808,65.3769847 22.1631601,65.9305418 22.1631601,66.6531493 C22.1615345,68.4522099 22.1729139,70.2512705 22.1566576,72.0495025 C22.1525935,72.6552663 22.2420035,72.9237581 22.5273029,72.8292888 C22.8491792,72.723218 22.9418405,73.0588327 22.9020124,73.6770267 C22.8621843,74.3076509 22.9735404,74.4617851 23.28485,74.6358075 C23.7002004,74.8670088 24.1521276,74.7087312 24.5544729,75.332726 C24.7901904,75.6998305 25.2364279,75.3849327 25.5339195,75.6534245 C25.9468315,76.0279871 26.4540304,75.8100447 26.7946015,76.6892724 C26.9303422,77.0398033 27.2416518,76.9494774 27.442418,76.6992165 C27.572469,76.5392816 27.6911406,76.4539277 27.8220044,76.494533 C28.1967138,76.6080619 28.3519622,76.2989649 28.2934393,75.4926609 C28.2771829,75.2664317 28.2788085,75.026115 28.2934393,74.7982285 C28.3153854,74.4858167 28.2007779,73.9720362 28.4267415,73.9272876 C28.6283206,73.8883397 28.9274379,73.5154344 29.0387941,74.3159377 C29.0932529,74.7054165 29.2663833,74.5844295 29.3883061,74.5645412 C29.6654773,74.5164778 29.8085334,74.7103886 29.7597643,75.337698 C29.6988029,76.1174843 29.9158255,76.1373726 30.1938095,76.162233 C30.5043063,76.1895794 30.5880266,75.9575494 30.5839625,75.3144951 C30.5660805,72.9361883 30.5750215,70.5570528 30.5733959,68.1787461 C30.7546545,68.1845468 30.8700748,68.0561017 30.8278082,67.6086154 C30.967613,67.5704962 31.1285511,67.7279451 31.2399073,67.4171907 C31.653632,68.4066326 32.1502643,68.245869 32.6639658,67.8580476 C32.6737196,67.9682618 32.6875375,68.0511296 32.6867247,68.1339974 C32.6639658,71.4976027 32.6371428,74.8603793 32.6208864,78.2239846 C32.6192607,78.6002046 32.5396045,78.7709123 32.4103663,78.9764245 C32.0779234,79.5042926 32.0372825,80.3478871 32.290882,80.9362487 C32.5404173,81.5146662 32.9435754,81.5130089 33.1931108,80.9312767 C33.4491487,80.3371143 33.4068821,79.5357824 33.0736264,78.9739385 C32.9622703,78.7874859 32.8720474,78.6499253 32.8752986,78.295251 C32.9135011,74.150202 32.9435754,70.0043244 32.9752754,65.8592755" id="Fill-47" fill="#CDF8D9"></path>
                            <text id="E" font-family="Skia-Regular, Skia" font-size="40.1017" font-weight="normal" fill="#000000">
                                <tspan x="21.368" y="65.0832">E</tspan>
                            </text>
                            <text id="4" font-family="Skia-Regular, Skia" font-size="14.2368" font-weight="normal" fill="#000000">
                                <tspan x="39.368" y="67.0832">4</tspan>
                            </text>
                            <path d="M35.3425765,82.1086235 C36.7098078,83.4758548 36.7098078,85.6911682 35.3425765,87.0583995 C33.9753452,88.4248002 31.7600318,88.4248002 30.3928005,87.0583995 C29.0263998,85.6911682 29.0263998,83.4758548 30.3928005,82.1086235 C31.7600318,80.7413922 33.9753452,80.7413922 35.3425765,82.1086235" id="Fill-52" fill="#4B5868"></path>
                            <path d="M8.368,90.069119 C8.368,90.3454208 8.78172503,96.5305964 12.5263837,96.8068982 C16.2710423,97.0832 51.0458913,97.0832 51.0458913,97.0832 C51.0458913,97.0832 57.368,96.5210688 57.368,90.907552 C57.368,85.292303 8.8938941,89.7841558 8.8938941,89.7841558" id="Fill-54" fill="#CDF8D9"></path>
                        </g>
                    </g>
                </g>
                <path d="M99.868,84.8753527 L99.868,33.2570395" id="Line-3" stroke="#4B5868" stroke-linecap="square"></path>
            </g>
        </g>
    </g>
</svg>