<?xml version="1.0" encoding="UTF-8"?>
<svg width="1440px" height="105px" viewBox="0 0 1440 105" version="1.1" xmlns="http://www.w3.org/2000/svg" xmlns:xlink="http://www.w3.org/1999/xlink">
    <!-- Generator: Sketch 58 (84663) - https://sketch.com -->
    <title>Retangulo illustra</title>
    <desc>Created with Sketch.</desc>
    <defs>
        <rect id="path-1" x="0" y="0" width="1440" height="105"></rect>
        <polygon id="path-3" points="0 0 337 0 337 254 0 254"></polygon>
        <polygon id="path-5" points="0 0 171 0 171 114 0 114"></polygon>
        <path d="M93,104.556176 L93,108.479522 L86.3212099,112.537983 C64.9306318,117.021554 47.4599992,110.824139 35.9547685,98.9868807 C38.963299,96.0490347 41.9705995,93.1111886 44.97913,90.1733426 C40.5770324,91.3187276 36.2155242,92.6878679 31.9155149,94.267459 C27.0890743,87.8922484 23.7090899,80.3510915 22.0313975,72.1991432 C19.3402018,59.1282077 21.9047096,45.0364645 20.0437502,31.9534341 C22.0928965,30.5975982 24.0866937,29.1522602 26.014072,27.6198391 C23.6746505,26.9098697 21.2565103,26.4127702 18.8014707,26.0910464 C15.7757205,15.2987861 8.8989036,6.12965846 0,0.00239287623 C24.2564309,-0.206848526 39.5229398,13.3321588 49.3184986,30.5298669 C47.6100567,32.4154585 45.8438058,34.2514611 44.0160559,36.0233608 C46.3210379,35.0872172 48.687519,34.3506391 51.0798297,33.7809703 C55.7771224,42.8460819 59.083308,52.7058271 61.4756186,62.0031604 C58.8102525,65.0329276 56.1842457,68.0965603 53.6049781,71.1976873 C56.7488064,70.0196461 59.8422055,68.6734861 62.8814855,67.1991203 C65.2959358,75.2204439 68.9477457,82.7978855 73.5810795,89.6641482 C78.0972273,96.3566967 84.6143008,102.084469 93,104.556176" id="path-7"></path>
        <path d="M53,182 C40.3373548,175.464481 29.9746961,164.129158 21.6078128,153.53083 C11.6723526,140.945624 6.34443192,126.870858 4.91938234,111.352402 C4.26789657,104.245008 4.43711365,97.1786542 4.90004324,90.1267861 C9.50637398,88.5454873 14.2154437,87.2213005 19.000661,86.1856102 C18.8846265,85.7281199 18.2839058,85.568783 17.7847154,85.4963571 C13.6594447,84.8916008 9.51000006,84.4377319 5.3508859,84.1057798 C5.69778092,79.9618114 6.09544107,75.8202572 6.44112739,71.6750817 C12.4543773,72.635932 18.397523,73.9902963 24.2004602,75.7586952 C18.7407919,72.4464175 12.8713765,69.7316535 6.75780508,67.649409 C7.23161291,61.1202144 7.491482,54.5789488 7.12403919,48.0062986 C6.20180609,31.5306142 6.07368458,15.5317336 0,0 C15.270633,10.0756494 31.4792122,27.6015093 43.8296419,47.7805713 C40.8671342,49.5670767 37.9892351,51.4658423 35.3107704,53.6024063 C38.8038945,52.6174141 42.3840445,51.9016048 46.001664,51.4272152 C48.539339,55.8047749 50.8878591,60.2905127 53,64.8377673 L53,129.55473 C52.3576103,129.958572 51.7213399,130.370854 51.0914721,130.791513 C51.7275527,130.767748 52.3637331,130.74675 53,130.728426 L53,182 Z" id="path-9"></path>
        <path d="M38.999344,146.019133 L4.87982315,146.019133 C3.65210688,144.43216 2.46494625,142.843702 1.31741176,141.270903 C0.868341615,140.655489 0.429228407,140.036563 0,139.414131 L0,59.7962402 C1.3631465,60.1848976 2.71926771,60.5985647 4.06741176,61.0375221 C2.73637762,60.1689235 1.37970081,59.3406489 0,58.5533293 L0,0.0649926618 C8.27923072,9.22790201 16.2040094,20.2175436 22.9175294,32.1084425 C20.0808235,33.9622035 17.3256471,35.9304425 14.7581176,38.1445487 C18.0995294,37.1168496 21.5211765,36.3649381 24.9790588,35.8627965 C34.0301176,52.795115 40.524,71.3106106 42.0782353,88.867354 C42.7032941,95.9194513 42.8430588,102.976752 42.6282353,110.02885 C38.0483529,112.176611 33.6638824,114.743257 29.5628235,117.710575 C33.7907059,117.524549 38.0250588,117.476416 42.2568235,117.534956 C41.6435392,127.04731 40.4589365,136.548424 38.9993444,146.019133" id="path-11"></path>
        <polygon id="path-13" points="0 0.25553435 103.727155 0.25553435 103.727155 80.0149355 0 80.0149355"></polygon>
    </defs>
    <g id="final" stroke="none" stroke-width="1" fill="none" fill-rule="evenodd">
        <g id="Dashboard_music_Jungle" transform="translate(0.000000, -104.000000)">
            <g id="Header" transform="translate(0.000000, 104.000000)">
                <g id="Retangulo-illustra">
                    <rect id="Rectangle" fill="#009C3B" x="0" y="0" width="1440" height="105"></rect>
                    <g id="Group-5">
                        <rect id="Rectangle-Copy" fill="#009C3B" x="0" y="0" width="1440" height="105"></rect>
                        <g id="Path-2-+-Fill-14-+-Group-98-+-Group-169-+-Group-180-+-Group-233-+-Group-245-+-Group-19-+-Rectangle-Copy-Mask" opacity="0.401367188">
                            <mask id="mask-2" fill="white">
                                <use xlink:href="#path-1"></use>
                            </mask>
                            <use id="Mask" fill="#009C3B" xlink:href="#path-1"></use>
                            <path d="M-436,241.571793 C65.5171881,62.0111065 461.877546,4.58404023 753.081075,69.2905938 C1189.88637,166.350424 1451.96954,-102.990605 1513.85029,15.9076871 C1575.73104,134.805979 1476.2365,409 1466.52972,409 C1460.05853,409 825.881957,353.190598 -436,241.571793 Z" id="Path-2" fill-opacity="0.6" fill="#06B247" mask="url(#mask-2)"></path>
                            <path d="M1392,112 C1412.01003,87.6268429 1432.34056,63.6334184 1453,40 L1453,50.1997637 C1449.00113,54.0599668 1444.96008,57.9608555 1440.89735,61.8814706 C1436.6057,66.0264731 1432.27911,70.1801058 1428.05854,74.4656587 C1419.58729,82.9973116 1411.09676,91.4944434 1403.13034,100.181441 C1399.41099,104.110687 1395.70248,108.052261 1392,112" id="Fill-14" fill="#2A2B69" mask="url(#mask-2)"></path>
                            <g id="Group-98" mask="url(#mask-2)">
                                <g transform="translate(1115.000000, -57.000000)">
                                    <mask id="mask-4" fill="white">
                                        <use xlink:href="#path-3"></use>
                                    </mask>
                                    <g id="Clip-95" stroke="none" fill="none"></g>
                                    <path d="M346,129 C332.814288,115.164758 315.554015,105.213947 296.927804,100.708884 C291.433452,99.3799995 285.601286,98.4149764 281.117924,94.9881103 C276.634561,91.5624611 274.223362,84.6259778 277.748364,80.2304379 C279.037193,78.6216605 280.941674,77.5544156 282.093419,75.8458503 C284.871806,71.7204681 281.913497,65.9035576 277.712869,63.2190169 C272.638334,59.9746898 244.045424,52.7218055 263.976375,44.5318875 C267.560128,43.059406 290.479987,50.5556756 283.50954,39.8832268 C277.826697,31.1834164 265.966533,27.3233243 263.308094,16.442781 C262.123301,11.598195 261.928692,6.01493446 265.058355,2.11346685 C278.463156,-14.5912886 294.098011,24.5682019 300.536036,30.8341584 C301.818745,25.2131731 301.160255,18.5918739 306.403696,14.5382904 C319.79993,4.17980871 323.710479,43.2991406 324.320011,48.0135154 C324.089907,45.6697142 326.672461,42.227028 328.699337,41.2340156 C331.631943,39.796825 334.689393,42.1248061 336.336842,44.4990305 C340.160491,50.0117093 341.503174,56.824066 342.385649,63.4624022 C344.713619,80.993451 346.348828,97.7712221 345.215442,115.419096" id="Fill-96" stroke="none" fill="#1A8943" fill-rule="evenodd" mask="url(#mask-4)"></path>
                                    <path d="M269,10.8479105 C293.242387,34.7105341 325.188794,70.1224901 337.846529,107 L339,106.615022 C326.207065,69.3933111 294.147381,33.9201904 269.861145,10 L269,10.8479105" id="Fill-97" stroke="none" fill="#009C3B" fill-rule="evenodd" mask="url(#mask-4)"></path>
                                </g>
                            </g>
                            <g id="Group-169" mask="url(#mask-2)">
                                <g transform="translate(1283.000000, 58.000000)">
                                    <mask id="mask-6" fill="white">
                                        <use xlink:href="#path-5"></use>
                                    </mask>
                                    <g id="Clip-167" stroke="none" fill="none"></g>
                                    <path d="M123.617657,90.1729573 C119.250937,91.3183374 114.92448,92.6874719 110.659027,94.2670563 C105.871374,87.8918729 102.518553,80.3507482 100.854343,72.1988348 C98.1847752,59.1279551 100.728673,45.0362721 98.8826696,31.9532976 C100.915348,30.5974675 102.893122,29.1521356 104.805011,27.6197211 C102.48439,26.9097547 100.085683,26.4126573 97.6503736,26.0909349 C94.6489396,15.2987207 87.827388,6.12963227 79,0.002392866 C103.060275,-0.206847643 118.205316,13.3321018 127.922153,30.5297365 C126.227441,32.41532 124.475384,34.2513147 122.662323,36.0232069 C124.948781,35.0870673 127.296244,34.3504923 129.669329,33.780826 C134.328872,42.8458989 137.608488,52.7056019 139.981573,62.0028955 C137.337627,65.0326497 134.732724,68.0974789 132.174184,71.1973831 C135.292747,70.0193469 138.361287,68.6731927 141.376141,67.2000427 C143.769968,75.2201226 147.39365,82.7975317 151.989749,89.6637651 C157.288622,97.5798294 165.364431,104.146111 176,105.570882 L164.627494,112.537502 C143.40882,117.022264 126.078589,110.823665 114.66582,98.9864578 C117.650172,96.0486243 120.633305,93.1107908 123.617657,90.1729573" id="Fill-168" stroke="none" fill="#008030" fill-rule="evenodd" mask="url(#mask-6)"></path>
                                </g>
                            </g>
                            <g id="Group-180" mask="url(#mask-2)">
                                <g transform="translate(1362.000000, 58.000000)">
                                    <mask id="mask-8" fill="white">
                                        <use xlink:href="#path-7"></use>
                                    </mask>
                                    <g id="Clip-171" stroke="none" fill="none"></g>
                                    <path d="M-8,-1.83777711 C-7.99877642,-1.83777711 -7.89721945,-1.80747932 -7.69165834,-1.74324803 C-6.15606794,-1.25969544 0.923554438,1.10595533 8.66146178,5.83240923 C16.4030399,10.5588631 24.7821021,17.6412725 29.0009991,27.5086539 C32.7806315,36.330156 34.4618277,47.7027312 37.0325651,59.1031804 C39.6081969,70.5012057 43.0807112,81.9513433 50.5726794,90.9303938 C70.0446999,114.258474 92.9292794,116.004838 99.2796493,116 C100.375975,116 100.984093,115.94909 101,115.947878 L100.893549,114.739602 L100.796886,114.746874 C100.593772,114.760205 100.073751,114.788079 99.2796493,114.788079 C93.1311698,114.783231 70.6895255,113.125336 51.5160581,90.1584063 C44.2320982,81.4374929 40.7865025,70.1848969 38.2267773,58.8377718 C35.6621578,47.4942825 33.9931974,36.0805023 30.1279144,27.0360086 C25.4611879,16.1445621 16.0029299,8.65495054 7.74133112,3.87153682 C-0.526385506,-0.910664996 -7.62191439,-2.99030471 -7.65250384,-3 L-7.99877642,-1.83777711" id="Fill-170" stroke="none" fill="#009C3B" fill-rule="evenodd" mask="url(#mask-8)"></path>
                                    <polyline id="Fill-173" stroke="none" fill="#009C3B" fill-rule="evenodd" mask="url(#mask-8)" points="43.0543907 73 66 34.6363867 64.9456093 34 42 72.3636133"></polyline>
                                    <polyline id="Fill-175" stroke="none" fill="#009C3B" fill-rule="evenodd" mask="url(#mask-8)" points="33.0417104 37 51 10.6553572 49.9570435 10 32 36.3458387"></polyline>
                                    <polyline id="Fill-176" stroke="none" fill="#009C3B" fill-rule="evenodd" mask="url(#mask-8)" points="31.1528327 29 44 7.59087385 42.8484848 7 30 28.4091261"></polyline>
                                    <polyline id="Fill-177" stroke="none" fill="#009C3B" fill-rule="evenodd" mask="url(#mask-8)" points="25 18.7949286 8.23828548 15 8 16.2038405 24.7617145 20"></polyline>
                                    <polyline id="Fill-178" stroke="none" fill="#009C3B" fill-rule="evenodd" mask="url(#mask-8)" points="37.907361 54 61 27.7754538 60.092639 27 37 53.2245462"></polyline>
                                </g>
                            </g>
                            <g id="Group-233" mask="url(#mask-2)" fill="#046A2A">
                                <g transform="translate(1401.000000, -15.000000)" id="Fill-232">
                                    <path d="M51.2336012,129.633215 C55.5291272,126.797728 60.1216068,124.346288 64.921348,122.299234 C65.1225493,115.522778 64.9492253,108.741536 64.2680499,101.962688 C62.5735958,85.0873509 55.6903306,67.2740301 46.129634,50.9717727 C42.5019508,51.4419611 38.9118413,52.1514311 35.4089999,53.1277001 C38.0949157,51.0100577 40.9808207,49.1281077 43.9515696,47.3574236 C31.5667828,27.3570687 15.3131137,9.9864188 0,0 C6.09058069,15.3941836 6.21905862,31.2513772 7.14385724,47.581152 C7.51232222,54.0955943 7.25173021,60.5789301 6.77660431,67.0503017 C12.9071828,69.1141058 18.7929261,71.8048277 24.2677824,75.0877717 C18.4487022,73.3338373 12.4890236,71.9926638 6.45904568,71.0403229 C6.1123977,75.1487885 5.71363132,79.2536648 5.36577129,83.360934 C9.5364555,83.6899462 13.6974433,84.1397957 17.8341899,84.7391962 C18.3335569,84.8109807 18.9371608,84.9689065 19.0535181,85.4223452 C14.254989,86.4488634 9.53281934,87.7613231 4.91367445,89.3286178 C4.44945706,96.3180342 4.27855718,103.321807 4.93306735,110.366259 C6.36208121,125.747282 11.7048234,139.697401 21.6679226,152.171152 C30.8043997,163.61001 42.3140821,175.915068 56.5908881,182 C59.9907048,164.632939 63.3844612,147.095989 64.5589433,129.508789 C60.1155465,129.438201 55.6721497,129.469308 51.2336012,129.633215"></path>
                                </g>
                            </g>
                            <g id="Group-245" mask="url(#mask-2)">
                                <g transform="translate(1400.000000, -15.000000)">
                                    <mask id="mask-10" fill="white">
                                        <use xlink:href="#path-9"></use>
                                    </mask>
                                    <g id="Clip-235" stroke="none" fill="none"></g>
                                    <path d="M-3,-2.23970515 C19.3156799,24.3778439 26.3793324,57.2753562 31.9234928,90.3716777 C37.4738602,123.46077 41.4898384,156.729393 57.9286587,184 L59,183.391523 C42.732495,156.429371 38.6941714,123.306542 33.1487696,90.1788929 C27.5946779,57.0584733 20.5198526,23.9151605 -2.03790321,-3 L-3,-2.23970515" id="Fill-234" stroke="none" fill="#009C3B" fill-rule="evenodd" mask="url(#mask-10)"></path>
                                    <polyline id="Fill-236" stroke="none" fill="#009C3B" fill-rule="evenodd" mask="url(#mask-10)" points="0 115.252648 37.6772144 126 38 124.748649 0.322785631 114"></polyline>
                                    <polyline id="Fill-237" stroke="none" fill="#009C3B" fill-rule="evenodd" mask="url(#mask-10)" points="-7 72.251271 30.6755418 83 31 81.747431 -6.6755418 71"></polyline>
                                    <polyline id="Fill-238" stroke="none" fill="#009C3B" fill-rule="evenodd" mask="url(#mask-10)" points="-16 42.2464017 23.6802207 53 24 51.7535983 -15.6802207 41"></polyline>
                                    <polyline id="Fill-239" stroke="none" fill="#009C3B" fill-rule="evenodd" mask="url(#mask-10)" points="-21 23.1675066 16.7178309 32 17 30.8324934 -20.7178309 22"></polyline>
                                    <polyline id="Fill-241" stroke="none" fill="#009C3B" fill-rule="evenodd" mask="url(#mask-10)" points="63.2189569 75 33 100.078475 33.7810431 101 64 75.9215251"></polyline>
                                    <polyline id="Fill-242" stroke="none" fill="#009C3B" fill-rule="evenodd" mask="url(#mask-10)" points="47.2307338 15 19 38.0602995 19.7692662 39 48 15.9397005"></polyline>
                                    <polyline id="Fill-244" stroke="none" fill="#009C3B" fill-rule="evenodd" mask="url(#mask-10)" points="56.2307338 46 28 69.0602995 28.768051 70 57 46.9397005"></polyline>
                                </g>
                            </g>
                            <g id="Group-19" mask="url(#mask-2)">
                                <g transform="translate(-15.000000, -54.000000)">
                                    <g id="Group-51" stroke-width="1" fill="none" transform="translate(135.000000, 99.000000)">
                                        <path d="M21.5146047,127.033469 C14.2293953,110.99298 8.46139535,94.2001633 4.73023256,76.9671837 C1.32595349,61.2336327 -2.16297674,42.3536327 1.82474419,26.4293878 C2.79888372,22.5410612 4.26269767,18.6906122 7.14344186,15.8171429 C9.6452093,13.3211429 13.1224186,11.0171429 16.5071628,13.2780408 C19.9765581,15.5937959 21.3036279,20.8835918 22.1970233,24.660898 C23.8262326,31.552 24.2625116,38.7435102 24.3276279,45.8044082 C27.4610233,25.2721633 38.4031628,9.00310204 54.1365581,1.48114286 C55.7032558,0.731428571 57.6267907,0.114938776 59.4773953,1.42367347 C62.1380465,3.3044898 62.5144186,7.41877551 62.395907,10.506449 C62.1966512,15.659102 61.9973953,20.810449 61.7981395,25.9617959 C69.1445581,12.4617143 82.5116279,4.65240816 97.9324651,4.8522449 C102.23014,4.90840816 108.106233,6.83232653 109.868279,12.0672653 C111.132837,15.8262857 109.355163,18.923102 107.594419,21.3342041 C98.5849302,33.6718367 88.3929302,44.7333878 77.1642791,54.356898 C82.8984186,52.2462041 88.7328372,50.1185306 95.2666047,50.2700408 C98.2893023,50.3405714 102.232744,51.563102 103.855442,55.1523265 C109.408558,67.4403265 93.1255814,70.9877551 87.1817674,72.4401633 C77.2072558,74.8773878 59.6857674,84.8065306 59.6857674,84.8065306 C59.6857674,84.8065306 70.7711628,85.9742041 74.4176744,87.9072653 C88.9529302,95.6094694 70.3622326,102.005551 65.9825116,104.276898 C53.4020465,110.802286 31.9553488,113.89649 21.5146047,127.033469" id="Fill-47" fill="#046A2A"></path>
                                        <path d="M21.3023256,127.345469 C21.8675349,99.2481633 34.272186,75.2860408 50.5929302,55.907102 C66.9097674,36.5333878 87.1348837,21.7689796 103.234233,12.1206531 L102.56614,11 C86.3782326,20.7018776 66.0489302,35.5355102 49.5979535,55.0646531 C33.1508837,74.5898776 20.5743256,98.8380408 20,127.319347 L21.3023256,127.345469" id="Fill-48" fill="#009C3B"></path>
                                        <path d="M95.0243721,59.5226122 C95.0230698,59.5226122 94.536,59.7250612 93.6217674,60.0868571 C87.2247442,62.6233469 60.047814,72.9234286 36.3467907,75.115102 L36.4666047,76.416 C63.8493023,73.8716735 95.4906047,60.7386122 95.5218605,60.7294694 L95.0243721,59.5226122" id="Fill-49" fill="#009C3B"></path>
                                        <path d="M28.0249302,94.7213061 C28.0236279,94.72 27.9624186,94.5998367 27.8413023,94.3555918 C26.0232558,90.6958367 11.3356279,59.9758367 10.3250233,24.0835918 L9.024,24.1214694 C10.1218605,62.7591837 26.8476279,95.2724898 26.8671628,95.3195102 L28.0249302,94.7213061" id="Fill-50" fill="#009C3B"></path>
                                    </g>
                                    <path d="M127.33207,124.358807 C126.379541,125.595476 124.547459,126.429888 123.475864,125.765348 C123.123787,125.546553 121.931845,124.842603 122.007381,124.284063 C122.036828,124.065268 121.86399,123.883165 121.723159,123.718729 C121.17904,123.089522 120.812879,121.965648 121.100943,121.124441 C121.961291,118.615769 124.299084,118.569563 126.28224,119.74372 C126.800753,120.052208 126.996636,120.874389 127.584285,121.038825 C128.495846,121.292954 127.673905,123.91578 127.33207,124.358807" id="Fill-55" fill="#046A2A"></path>
                                    <path d="M98.332121,113.358191 C97.3783844,114.594896 95.5477221,115.430692 94.4749285,114.764774 C94.1241582,114.547331 92.9323075,113.84336 93.0065581,113.284804 C93.0360023,113.066002 92.8644578,112.882535 92.7236376,112.719453 C92.1795596,112.088869 91.812147,110.964962 92.1014685,110.12509 C92.9617517,107.616345 95.2993666,107.568779 97.2823706,108.744329 C97.8008449,109.051466 97.996713,109.875031 98.5843171,110.038113 C99.4958077,110.292249 98.67393,112.916511 98.332121,113.358191" id="Fill-56" fill="#046A2A"></path>
                                    <path d="M118.332776,115.358191 C117.379028,116.594896 115.548343,117.430692 114.475536,116.764774 C114.124761,116.547331 112.932896,115.84336 113.007148,115.284804 C113.036592,115.066002 112.863765,114.882535 112.722943,114.719453 C112.180139,114.088869 111.812722,112.966321 112.100767,112.12509 C112.96106,109.616345 115.298704,109.568779 117.281733,110.744329 C117.801494,111.051466 117.997364,111.875031 118.583695,112.038113 C119.496477,112.293608 118.673309,114.916511 118.332776,115.358191" id="Fill-57" fill="#046A2A"></path>
                                    <path d="M115.522564,130.828445 C114.841648,131.711401 113.534863,132.307237 112.767786,131.832092 C112.517678,131.677099 111.665635,131.174005 111.719486,130.775087 C111.73983,130.618822 111.617767,130.487967 111.516049,130.371087 C111.128321,129.921351 110.866246,129.118433 111.072077,128.517515 C111.687175,126.726195 113.356557,126.691893 114.773437,127.531654 C115.143214,127.75144 115.283226,128.339654 115.703264,128.456534 C116.354263,128.638207 115.766689,130.512106 115.522564,130.828445" id="Fill-58" fill="#046A2A"></path>
                                    <path d="M84.5225641,121.828445 C83.841648,122.711401 82.5336667,123.307237 81.7677856,122.832092 C81.5176775,122.677099 80.6656348,122.174005 80.7194858,121.775087 C80.7410263,121.618822 80.6177673,121.487967 80.5160487,121.371087 C80.1283214,120.921351 79.8662464,120.118433 80.072077,119.517515 C80.6871752,117.726195 82.3565567,117.691893 83.7734367,118.531654 C84.1432137,118.75144 84.2832263,119.339654 84.7032642,119.456534 C85.3542631,119.638207 84.7666887,121.512106 84.5225641,121.828445" id="Fill-59" fill="#046A2A"></path>
                                    <path d="M118.522564,153.827189 C117.841648,154.711418 116.533667,155.307256 115.767786,154.83211 C115.517678,154.677116 114.665635,154.17402 114.719486,153.7751 C114.73983,153.618836 114.617767,153.48798 114.516049,153.371099 C114.128321,152.921362 113.866246,152.118441 114.072077,151.517521 C114.687175,149.726194 116.356557,149.691892 117.773437,150.531656 C118.143214,150.751443 118.283226,151.338388 118.703264,151.456539 C119.354263,151.638213 118.766689,153.510848 118.522564,153.827189" id="Fill-60" fill="#046A2A"></path>
                                    <path d="M65.5225641,143.827405 C64.841648,144.71033 63.5336667,145.307415 62.7677856,144.832287 C62.5176775,144.676029 61.6656348,144.172953 61.7194858,143.774049 C61.7398296,143.61779 61.6165706,143.486939 61.5160487,143.371333 C61.1283214,142.920343 60.8662464,142.118724 61.072077,141.517827 C61.6871752,139.7253 63.3565567,139.69227 64.7734367,140.532001 C65.1432137,140.750509 65.2832263,141.338702 65.7032642,141.455578 C66.3542631,141.637244 65.7666887,143.511077 65.5225641,143.827405" id="Fill-61" fill="#046A2A"></path>
                                    <path d="M129.33207,143.358191 C128.378261,144.594896 126.547459,145.430692 125.475864,144.764774 C125.123787,144.547331 123.931845,143.84336 124.007381,143.284804 C124.036828,143.066002 123.86399,142.882535 123.723159,142.719453 C123.17904,142.088869 122.812879,140.966321 123.100943,140.12509 C123.961291,137.616345 126.299084,137.568779 128.28224,138.744329 C128.800753,139.051466 128.996636,139.875031 129.584285,140.038113 C130.495846,140.293608 129.673905,142.916511 129.33207,143.358191" id="Fill-62" fill="#046A2A"></path>
                                    <path d="M97.332121,130.359397 C96.3783844,131.594844 94.5477221,132.430707 93.4749285,131.764735 C93.1241582,131.547275 91.9323075,130.843247 92.0065581,130.284645 C92.0360023,130.065826 91.8644578,129.882344 91.7236376,129.719249 C91.1795596,129.089973 90.812147,127.965975 91.1014685,127.124675 C91.9617517,124.615726 94.2993666,124.569516 96.2823706,125.743802 C96.8008449,126.050964 96.996713,126.874595 97.5843171,127.037691 C98.4958077,127.293207 97.67393,129.916322 97.332121,130.359397" id="Fill-64" fill="#046A2A"></path>
                                    <path d="M96.3324343,147.358191 C95.3787374,148.594896 93.5481514,149.430692 92.4754024,148.764774 C92.1246468,148.547331 90.9328457,147.84336 91.0070932,147.284804 C91.0365362,147.066002 90.8637187,146.882535 90.7229044,146.719453 C90.1801292,146.088869 89.8127319,144.966321 90.1007612,144.12509 C90.9622887,141.616345 93.2985261,141.568779 95.2827277,142.744329 C95.8011804,143.051466 95.9970403,143.875031 96.58462,144.038113 C97.4960726,144.292249 96.6729489,146.916511 96.3324343,147.358191" id="Fill-65" fill="#046A2A"></path>
                                    <path d="M66.3315554,132.358807 C65.3791038,133.595476 63.5484508,134.429888 62.4756625,133.765348 C62.1248941,133.546553 60.9317692,132.842603 61.0072996,132.284063 C61.0367437,132.065268 60.8639198,131.883165 60.7231003,131.718729 C60.1790251,131.089522 59.8128946,129.965648 60.1009344,129.124441 C60.9612132,126.615769 63.2988163,126.569563 65.2818103,127.74372 C65.8015622,128.052208 65.9974292,128.874389 66.5837503,129.038825 C67.4965164,129.292954 66.6733627,131.91578 66.3315554,132.358807" id="Fill-66" fill="#046A2A"></path>
                                    <path d="M80.3320701,150.358646 C79.379541,151.595437 77.547459,152.42993 76.4758638,151.765326 C76.1237865,151.547868 74.9318449,150.843849 75.0073815,150.285254 C75.036828,150.066438 74.86399,149.882958 74.7231591,149.719864 C74.1790397,149.089237 73.8128793,147.965253 74.1009426,147.123964 C74.9612914,144.616405 77.2990845,144.568836 79.2822397,145.744467 C79.8007535,146.051626 79.9966365,146.873887 80.5842854,147.03834 C81.4958455,147.292493 80.6739051,149.915576 80.3320701,150.358646" id="Fill-67" fill="#046A2A"></path>
                                    <path d="M136.6425,127.9715 C136.4855,127.8725 136.3075,127.7505 136.1625,127.6205 C136.3855,127.4245 136.6145,127.2245 136.8375,127.0285 C136.7685,127.3415 136.7035,127.6555 136.6425,127.9715" id="Fill-68" fill="#046A2A"></path>
                                    <path d="M136.152288,128 C135.954647,127.808636 135.812162,127.603778 135.837441,127.418548 C135.861572,127.234544 135.717938,127.082434 135.600732,126.946271 C135.149146,126.418793 134.844641,125.479146 135.083648,124.776251 C135.513402,123.517664 136.38555,123 137.370307,123 C137.575991,123 137.787421,123.023307 138,123.066241 C137.710433,123.980128 137.462233,124.911187 137.24276,125.843474 C137.131299,126.316977 137.026734,126.795388 136.927913,127.273798 C136.67167,127.51423 136.408531,127.759568 136.152288,128" id="Fill-69" fill="#046A2A"></path>
                                    <path d="M137.333302,129 C137.00242,129 136.693875,128.9364 136.430007,128.795209 C136.335071,128.744329 136.177308,128.662921 136,128.562434 C136.085164,128.160483 136.175912,127.761077 136.272245,127.362943 C136.392312,126.866865 136.519359,126.370787 136.654784,125.879796 C136.921444,124.91308 137.223008,123.947636 137.574832,123 C138.140264,123.097944 138.715468,123.297647 139.265543,123.576214 C139.78909,123.843333 139.987341,124.556922 140.580695,124.699385 C141.500743,124.91944 140.670047,127.192495 140.325204,127.576638 C139.596425,128.38817 138.360852,129 137.333302,129" id="Fill-70" fill="#046A2A"></path>
                                    <path d="M99.924882,139 C99.738185,139 99.5641884,138.958193 99.4143228,138.866487 C99.2136552,138.741065 98.5329096,138.339177 98.5760912,138.019555 C98.5926018,137.894134 98.4935381,137.79029 98.4135251,137.697235 C98.1023634,137.337154 97.8928055,136.695212 98.0579117,136.213756 C98.3525628,135.353338 98.9520254,135 99.6289609,135 C100.079828,135 100.564986,135.15644 101.018393,135.424815 C101.314314,135.600135 101.427349,136.070802 101.762641,136.163857 C102.283361,136.309508 101.813443,137.809171 101.617856,138.062711 C101.20636,138.596763 100.506564,139 99.924882,139" id="Fill-72" fill="#046A2A"></path>
                                    <path d="M107.924882,147 C107.738185,147 107.562918,146.958193 107.414323,146.866487 C107.213655,146.742414 106.53291,146.339177 106.574821,146.019555 C106.592602,145.895482 106.493538,145.79029 106.413525,145.697235 C106.102363,145.337154 105.892805,144.695212 106.057912,144.213756 C106.352563,143.353338 106.952025,143 107.628961,143 C108.079828,143 108.564986,143.15644 109.018393,143.424815 C109.314314,143.600135 109.426079,144.070802 109.762641,144.165206 C110.283361,144.310856 109.813443,145.809171 109.617856,146.062711 C109.20636,146.596763 108.506564,147 107.924882,147" id="Fill-73" fill="#046A2A"></path>
                                    <path d="M106.925768,124 C106.73904,124 106.563745,123.958207 106.415126,123.865184 C106.214425,123.741153 105.532299,123.3394 105.575488,123.019885 C105.592001,122.894506 105.494191,122.78935 105.412895,122.696326 C105.102953,122.336367 104.893361,121.694641 105.057224,121.213347 C105.353193,120.353219 105.952753,120 106.629799,120 C107.080739,120 107.565976,120.156387 108.018186,120.42602 C108.315426,120.601281 108.427208,121.07179 108.762555,121.164813 C109.283359,121.310415 108.813365,122.808224 108.619017,123.061678 C108.206184,123.596899 107.507544,124 106.925768,124" id="Fill-74" fill="#046A2A"></path>
                                    <path d="M85.0547725,92 C85.0369119,92 85.0178606,92 85,91.998566 C85.603688,90.999044 86.2085668,89.999522 86.8146362,89 C87.2420997,89.2237094 86.8205898,90.7409178 86.6419838,91.0033461 C86.256195,91.5712237 85.6001159,92 85.0547725,92" id="Fill-75" fill="#046A2A"></path>
                                    <path d="M84.9636545,92 C84.7899505,91.9919083 84.6282721,91.9501011 84.4879727,91.8678355 C84.2768555,91.742414 83.5606605,91.340526 83.6047546,91.0209036 C83.6234612,90.8954821 83.5192388,90.7916386 83.4350591,90.698584 C83.1076939,90.338503 82.8872234,89.6952124 83.0609274,89.2151045 C83.3709223,88.3546864 84.0016015,88 84.7137879,88 C85.1881335,88 85.6985561,88.1577883 86.175574,88.4261632 C86.4869051,88.6014835 86.6044893,89.072151 86.9585783,89.1652057 C86.9732763,89.1692515 86.9866382,89.174646 87,89.1800405 C86.319882,90.120027 85.6411001,91.0600135 84.9636545,92" id="Fill-76" fill="#046A2A"></path>
                                    <path d="M44.9250716,113 C44.7383579,113 44.5630757,112.958207 44.4144669,112.865184 C44.2137814,112.741153 43.5329751,112.3394 43.5748904,112.019885 C43.5914025,111.894506 43.4936001,111.790698 43.4123097,111.696326 C43.1023904,111.336367 42.8928139,110.694641 43.0579348,110.214695 C43.3526122,109.354567 43.9521282,109 44.6291241,109 C45.0800313,109 45.5652328,109.157735 46.0186803,109.42602 C46.3146279,109.601281 46.426402,110.07179 46.7617246,110.164813 C47.2837608,110.310415 46.8138012,111.809572 46.6181964,112.061678 C46.205394,112.596899 45.5068054,113 44.9250716,113" id="Fill-77" fill="#046A2A"></path>
                                    <path d="M68.8625929,118 C68.6688695,118 68.4895444,117.957923 68.3350892,117.865626 C68.2644063,117.822192 68.13613,117.74754 68,117.653885 C68.905788,116.809637 69.8037224,115.97489 70.7108194,115.131999 C70.7252178,115.137428 70.7396161,115.142857 70.7553234,115.146929 C71.2919898,115.293519 70.8076811,116.801493 70.607413,117.056668 C70.1820067,117.594164 69.4607795,118 68.8625929,118 M68.7382434,114.222599 C68.7879832,114.149304 68.839032,114.073295 68.8887718,114 C68.9136417,114.002715 68.9398205,114.006787 68.9646904,114.012216 C68.8913897,114.080081 68.8115442,114.154734 68.7382434,114.222599" id="Fill-78" fill="#046A2A"></path>
                                    <path d="M68.1713428,118 C67.8954429,117.803762 67.5894944,117.533751 67.6195429,117.305053 C67.6372989,117.167835 67.5307632,117.052748 67.4447153,116.950941 C67.1100841,116.55699 66.8847203,115.854666 67.0622797,115.327923 C67.3791549,114.386573 68.0238319,114 68.7518253,114 C68.866556,114 68.9812866,114.008853 69.098749,114.028034 C69.046847,114.107709 68.9935792,114.190336 68.9416773,114.270011 C69.0181644,114.196238 69.1014807,114.115087 69.1779678,114.041313 C69.5344523,114.109185 69.899132,114.255256 70.2460556,114.464773 C70.5506382,114.649207 70.6749298,115.127259 71,115.258576 C70.053472,116.174843 69.1165049,117.082257 68.1713428,118" id="Fill-79" fill="#046A2A"></path>
                                    <path d="M79.924882,133 C79.738185,133 79.5629184,132.958193 79.4143228,132.866487 C79.2136552,132.742414 78.5329096,132.339177 78.5748212,132.020904 C78.5926018,131.895482 78.4935381,131.79029 78.4135251,131.697235 C78.1023634,131.337154 77.8928055,130.695212 78.0579117,130.213756 C78.3525628,129.353338 78.9520254,129 79.6289609,129 C80.0798279,129 80.5649861,129.15644 81.0183932,129.424815 C81.3143143,129.600135 81.4260786,130.070802 81.7626412,130.165206 C82.2833608,130.309508 81.8134431,131.809171 81.6178558,132.062711 C81.2063603,132.596763 80.5065639,133 79.924882,133" id="Fill-80" fill="#046A2A"></path>
                                    <path d="M71.9261293,107 C71.7381644,107 71.5641699,106.958207 71.414306,106.865184 C71.2136409,106.741153 70.5329033,106.338052 70.5760844,106.019885 C70.5925948,105.894506 70.4935323,105.78935 70.4135202,105.696326 C70.1023622,105.336367 69.8928068,104.694641 70.057911,104.214695 C70.3525586,103.353219 70.9520141,103 71.6289416,103 C72.0798032,103 72.5649557,103.156387 73.0183574,103.424671 C73.3155451,103.601281 73.427308,104.07179 73.7625967,104.164813 C74.2833101,104.310415 73.813398,105.809572 73.619083,106.061678 C73.2063223,106.596899 72.5065342,107 71.9261293,107" id="Fill-81" fill="#046A2A"></path>
                                    <path d="M97.9250716,157 C97.7383579,157 97.5630757,156.958207 97.4144669,156.865184 C97.2137814,156.741153 96.5317049,156.338052 96.5748904,156.019885 C96.5914025,155.894506 96.4936001,155.78935 96.4123097,155.696326 C96.1023904,155.336367 95.8928139,154.694641 96.0579348,154.213347 C96.3526122,153.353219 96.9521282,153 97.6291241,153 C98.0800313,153 98.5652328,153.156387 99.0186803,153.424671 C99.3146279,153.601281 99.426402,154.070442 99.7617246,154.164813 C100.283761,154.310415 99.8138012,155.808224 99.6181964,156.061678 C99.205394,156.595551 98.5068054,157 97.9250716,157" id="Fill-82" fill="#046A2A"></path>
                                    <path d="M133.749037,137 C133.579396,137 133.421294,136.958207 133.28512,136.865184 C133.102784,136.741153 132.484226,136.3394 132.522309,136.019885 C132.538466,135.894506 132.448452,135.790698 132.375748,135.696326 C132.093012,135.336367 131.902598,134.694641 132.052621,134.214695 C132.320355,133.353219 132.865055,133 133.48015,133 C133.889828,133 134.330666,133.156387 134.742653,133.42602 C134.845361,133.493428 134.924988,133.603977 135,133.719919 C134.921526,134.663633 134.859209,135.611392 134.811894,136.565891 C134.479535,136.830131 134.091783,137 133.749037,137" id="Fill-83" fill="#046A2A"></path>
                                    <path d="M135.143555,137 C135.184555,135.993842 135.238555,134.994789 135.306555,134 C135.410555,134.196116 135.506555,134.407864 135.669555,134.468972 C136.079555,134.622454 135.709555,136.202748 135.555555,136.468498 C135.441555,136.667456 135.299555,136.847939 135.143555,137" id="Fill-84" fill="#046A2A"></path>
                                    <path d="M140.924882,155 C140.738185,155 140.564188,154.958193 140.414323,154.866487 C140.213655,154.742414 139.53291,154.339177 139.574821,154.020904 C139.592602,153.895482 139.493538,153.79029 139.413525,153.697235 C139.102363,153.337154 138.892805,152.695212 139.057912,152.213756 C139.352563,151.353338 139.952025,151 140.628961,151 C141.079828,151 141.564986,151.15644 142.018393,151.424815 C142.314314,151.601483 142.426079,152.070802 142.762641,152.165206 C143.283361,152.309508 142.813443,153.809171 142.617856,154.062711 C142.20636,154.596763 141.506564,155 140.924882,155" id="Fill-85" fill="#046A2A"></path>
                                    <path d="M44.9253433,135 C44.7386033,135 44.5632963,134.958207 44.4146665,134.865184 C44.2139527,134.741153 43.5317799,134.338052 43.5749715,134.019885 C43.5914859,133.894506 43.4936697,133.78935 43.4123679,133.696326 C43.1024049,133.336367 42.8927987,132.694641 43.057943,132.213347 C43.3526619,131.353219 43.9522626,131 44.629354,131 C45.0803249,131 45.5655949,131.156387 46.0191064,131.424671 C46.3150957,131.601281 46.4268857,132.070442 46.7622555,132.164813 C47.2830951,132.310415 46.8143395,133.808224 46.6187071,134.061678 C46.2058464,134.596899 45.5071592,135 44.9253433,135" id="Fill-87" fill="#046A2A"></path>
                                    <path d="M137.926152,113 C137.738185,113 137.564188,112.958207 137.414323,112.865184 C137.213655,112.741153 136.53291,112.3394 136.576091,112.019885 C136.592602,111.894506 136.493538,111.790698 136.413525,111.696326 C136.102363,111.336367 135.892805,110.694641 136.057912,110.214695 C136.352563,109.354567 136.952025,109 137.628961,109 C138.079828,109 138.564986,109.157735 139.018393,109.42602 C139.315584,109.601281 139.427349,110.07179 139.762641,110.164813 C140.283361,110.310415 139.813443,111.809572 139.617856,112.061678 C139.20636,112.596899 138.506564,113 137.926152,113" id="Fill-88" fill="#046A2A"></path>
                                    <path d="M98.0009725,95 C97.9951017,94.8214876 98.0156497,94.6479339 98.0670197,94.4876033 C98.4075295,93.4330579 99.1002909,93 99.8825828,93 C99.9222111,93 99.9603717,93 100,93.0016529 C99.3395284,93.6628099 98.6614442,94.338843 98.0009725,95" id="Fill-89" fill="#046A2A"></path>
                                    <path d="M100,98 C100.666667,97.3328541 101.333333,96.6657081 102,96 C101.912682,96.4399712 101.739432,96.8828181 101.635482,97.0150971 C101.234927,97.5226456 100.584893,97.9194824 100,98" id="Fill-90" fill="#046A2A"></path>
                                    <path d="M99.9258733,98 C99.7378593,98 99.5638193,97.9581788 99.4139162,97.8650927 C99.2131985,97.7409781 98.5322829,97.3389545 98.5754753,97.0192243 C98.5919901,96.8937605 98.4929016,96.789882 98.4128686,96.696796 C98.1867437,96.4337268 98.013974,96.0209106 98,95.6310287 C98.5716642,95.0913997 99.1585729,94.539629 99.7302371,94 C100.151998,94.0215852 100.599167,94.1753794 101.018387,94.4236088 C101.314382,94.5989882 101.427445,95.0698145 101.762821,95.1629005 C102.030868,95.2384486 102.03595,95.6715008 101.952105,96.1099494 C101.34106,96.73457 100.730014,97.3605396 100.118969,97.9865093 C100.05291,97.9959528 99.9881212,98 99.9258733,98" id="Fill-91" fill="#046A2A"></path>
                                    <path d="M57.9253433,96 C57.7386033,96 57.5632963,95.9582069 57.4146665,95.8651837 C57.2139527,95.7411527 56.5330503,95.3394001 56.5749715,95.0198854 C56.5914859,94.8945062 56.4936697,94.7906977 56.4123679,94.6963263 C56.1024049,94.3363667 55.8927987,93.6946411 56.057943,93.214695 C56.3526619,92.3532187 56.9522626,92 57.629354,92 C58.0803249,92 58.5655949,92.1577351 59.0191064,92.4260195 C59.3150957,92.6012808 59.4268857,93.0717897 59.7622555,93.1648129 C60.2830951,93.3104146 59.8143395,94.809572 59.6187071,95.0616785 C59.2058464,95.5968992 58.5071592,96 57.9253433,96" id="Fill-92" fill="#046A2A"></path>
                                    <path d="M50.9104676,84 C50.7288399,83.9986514 50.5599135,83.9568442 50.4151195,83.8664869 C50.2131699,83.742414 49.5323838,83.3391773 49.575568,83.0209036 C49.5920796,82.8954821 49.4942801,82.79029 49.4129922,82.6972353 C49.1348352,82.3749157 48.9379661,81.8273769 49.0179838,81.3715442 C49.4891996,80.9197572 49.9654958,80.4625759 50.4354415,80.0094403 C50.4989476,80.0026972 50.5637239,80 50.6285002,80 C51.079394,80 51.5658512,80.1564396 52.0180151,80.4248146 C52.315224,80.6014835 52.4269948,81.0708024 52.7623074,81.1652057 C52.9693375,81.2231962 53.0201424,81.4942684 52.9934698,81.816588 C52.2974422,82.5475388 51.6064952,83.2717465 50.9104676,84" id="Fill-93" fill="#046A2A"></path>
                                    <g id="Group-404" stroke-width="1" fill="none">
                                        <path d="M49.428898,135.470204 C53.568,132.490939 57.9931429,129.913959 62.6155102,127.757551 C62.8323265,120.677061 62.6912653,113.591347 62.0604082,106.510857 C60.4917551,88.8834286 53.9376327,70.2933878 44.8026122,53.292898 C41.3126531,53.7970612 37.8592653,54.552 34.4868571,55.5838367 C37.0782041,53.3608163 39.8589388,51.3846531 42.7219592,49.5234286 C30.8858776,28.6685714 15.3195102,10.5748571 0.632163265,0.195102041 C6.43395918,16.259102 6.50057143,32.8285714 7.33126531,49.8878367 C7.66171429,56.6940408 7.38873469,63.468898 6.90808163,70.2333061 C12.7947755,72.3675102 18.4450612,75.1586939 23.6969796,78.5689796 C18.1080816,76.7586939 12.3833469,75.3768163 6.58938776,74.4037551 C6.23934694,78.6969796 5.84228571,82.988898 5.4922449,87.2821224 C9.50204082,87.6099592 13.5013878,88.0657959 17.4759184,88.6770612 C17.9565714,88.7515102 18.5364898,88.9134694 18.6462041,89.3875918 C14.0290612,90.476898 9.4837551,91.864 5.03640816,93.5188571 C4.56620408,100.824 4.37681633,108.14351 4.98155102,115.500898 C6.29942857,131.56751 11.3867755,146.126857 20.9214694,159.125388 C29.6646531,171.046367 40.6870204,183.863347 54.3921633,190.170612 C57.7227755,172.011592 61.0481633,153.673633 62.2406531,135.293878 C57.9696327,135.235102 53.696,135.283429 49.428898,135.470204" id="Fill-403" fill="#046A2A"></path>
                                    </g>
                                    <g id="Group-415" stroke-width="1" fill="none" transform="translate(20.000000, 17.000000)">
                                        <mask id="mask-12" fill="white">
                                            <use xlink:href="#path-11"></use>
                                        </mask>
                                        <g id="Clip-406"></g>
                                        <path d="M-22.1009412,-19.743531 C-1.44423529,7.67652212 5.01341176,41.6543363 10.0527059,75.8363894 C15.0984706,110.011938 18.7155294,144.373513 33.9110588,172.502549 L35.0485882,171.882027 C20.0148235,144.079513 16.3744706,109.859735 11.3325882,75.6464602 C6.28294118,41.4383894 -0.177294118,7.21730973 -21.0695294,-20.5279646 L-22.1009412,-19.743531" id="Fill-405" fill="#009C3B" mask="url(#mask-12)"></path>
                                        <polyline id="Fill-407" fill="#009C3B" mask="url(#mask-12)" points="-19.3095294 102.568274 15.9668235 112.758106 16.324 111.507956 -18.9523529 101.318124"></polyline>
                                        <polyline id="Fill-408" fill="#009C3B" mask="url(#mask-12)" points="-25.6921176 58.8312212 9.40047059 69.0119469 9.75894118 67.7630973 -25.3336471 57.5810708"></polyline>
                                        <polyline id="Fill-410" fill="#009C3B" mask="url(#mask-12)" points="-12.5102353 129.18308 21.3089412 138.397248 21.648 137.141894 -12.1724706 127.927726"></polyline>
                                        <polyline id="Fill-411" fill="#009C3B" mask="url(#mask-12)" points="40.744 60.7526283 11.9291765 86.8145575 12.7949412 87.781115 41.6097647 61.7191858"></polyline>
                                        <polyline id="Fill-413" fill="#009C3B" mask="url(#mask-12)" points="50.2997647 116.106584 19.6032941 131.003018 20.1649412 132.173814 50.8627059 117.278681"></polyline>
                                        <polyline id="Fill-414" fill="#009C3B" mask="url(#mask-12)" points="34.0184706 30.7269027 7.11505882 54.4758584 7.96788235 55.4541239 34.8725882 31.7038673"></polyline>
                                    </g>
                                    <g id="Group-421" stroke-width="1" fill="none" transform="translate(20.000000, 84.000000)">
                                        <mask id="mask-14" fill="white">
                                            <use xlink:href="#path-13"></use>
                                        </mask>
                                        <g id="Clip-417"></g>
                                        <path d="M-24.4740741,105.809516 C6.67203704,117.564968 55.2390741,119.408371 77.677963,116.348661 C80.2122222,116.002452 82.8151852,115.576548 84.6325926,114.230903 C86.4512963,112.886565 87.2446296,110.357274 85.7512963,108.15721 C84.8218519,106.789355 83.2183333,105.802984 81.667963,104.923742 C74.3814815,100.791435 66.592037,97.5083226 58.6664815,95.229871 C79.5925926,89.9609516 95.8624074,76.7305161 102.993333,59.184871 C103.703704,57.4394516 104.265,55.3216935 102.855926,53.4613065 C100.829815,50.7883065 96.6012963,50.7687097 93.4409259,51.1841613 C88.1688889,51.8778871 82.8968519,52.5716129 77.6248148,53.2640323 C91.1905556,44.1410806 98.7012963,29.1038226 97.9312963,12.6124839 C97.7161111,8.0163871 95.527963,1.90480645 90.0990741,0.506903226 C86.1998148,-0.497758065 83.0912963,1.69446774 80.6853704,3.80308065 C68.3718519,14.5982903 57.4103704,26.541871 47.9616667,39.4587581 C49.9138889,33.1237742 51.8803704,26.6790484 51.4837037,19.6986774 C51.3009259,16.469129 49.9035185,12.3616452 46.1662963,10.9585161 C33.3692593,6.1586129 30.3307407,23.921129 29.0616667,30.4194194 C26.9292593,41.3256774 17.3975926,61.0086774 17.3975926,61.0086774 C17.3975926,61.0086774 15.7940741,49.2506129 13.6798148,45.5246129 C5.25259259,30.6820161 -0.618333333,51.1802419 -2.78574074,56.0820484 C-9.01185185,70.1577581 -11.3957407,93.407371 -24.4740741,105.809516" id="Fill-416" fill="#02451B" mask="url(#mask-14)"></path>
                                        <path d="M-24.4027778,106.457516 C4.7612963,103.190081 29.1316667,87.4734677 48.5294444,68.0556774 C67.9298148,48.6326613 82.3783333,25.4940968 91.7246296,7.26648387 L90.5722222,6.66682258 C81.2738889,24.8082097 66.8811111,47.844871 47.6155556,67.1280968 C28.3474074,86.4165484 4.22981481,101.937194 -24.5453704,105.16021 L-24.4027778,106.457516" id="Fill-418" fill="#009C3B" mask="url(#mask-14)"></path>
                                        <path d="M40.7724074,20.3924032 C40.7659259,20.4224516 28.4705556,55.5189677 26.8709259,85.0539194 L28.1659259,85.1244677 C28.9540741,70.5026613 32.4112963,54.4137097 35.6727778,41.9945806 C37.3035185,35.7837097 38.885,30.4886613 40.0581481,26.7482903 C40.6453704,24.8787581 41.1301852,23.3959355 41.4672222,22.3834355 C41.8055556,21.369629 41.9948148,20.8287581 41.9948148,20.8274516 L40.7724074,20.3924032" id="Fill-419" fill="#009C3B" mask="url(#mask-14)"></path>
                                        <path d="M6.56833333,52.6748226 L6.47888889,52.8877742 C6.25592593,53.4848226 5.61166667,55.4745484 4.74703704,58.4859194 C2.16092593,67.5056613 -2.33722222,85.4994194 -2.57185185,100.590242 L-1.27555556,100.609839 C-1.12,90.3881613 1.04351852,78.6941129 3.2187037,69.483629 C4.3062963,64.8770806 5.39518519,60.8884839 6.23518519,58.010371 C6.65518519,56.5706613 7.01296296,55.4079194 7.27611111,54.5861613 C7.40833333,54.1759355 7.51592593,53.8493226 7.595,53.6193871 L7.69222222,53.3489516 L7.71944444,53.2770968 L7.71814815,53.2770968 L6.56833333,52.6748226" id="Fill-420" fill="#009C3B" mask="url(#mask-14)"></path>
                                    </g>
                                    <path d="M62,156.566917 C62.0270996,156.570784 64.8402992,156.998711 69.5324063,157 C78.5630349,156.998711 94.5621395,155.413319 111,146.122664 L110.365094,145 C94.1904875,154.145005 78.4159227,155.711063 69.5324063,155.711063 C67.226357,155.711063 65.3848727,155.605371 64.1240947,155.499678 C63.4930605,155.44812 63.0078481,155.395274 62.6813621,155.356606 C62.3548761,155.317938 62.1961497,155.292159 62.1948592,155.292159 L62,156.566917" id="Fill-422" fill="#009C3B"></path>
                                    <path d="M92.7547744,98 C92.741254,98.0409826 86.1311475,113.318223 86,128.990746 L87.3520365,129 C87.4115261,121.340228 89.073179,113.704252 90.7226635,107.993134 C91.5474058,105.137575 92.369444,102.763231 92.9832685,101.10542 C93.2901808,100.276515 93.5457157,99.6260821 93.7228325,99.1845281 C93.9013013,98.7429741 94,98.514265 94,98.514265 L92.7547744,98" id="Fill-423" fill="#009C3B"></path>
                                    <path d="M112.073233,110 L112.063021,110.01002 C111.806436,110.266784 106.552204,115.453407 94,118.79008 L94.3344531,120 C107.537691,116.490481 112.934897,110.930611 113,110.861723 L112.073233,110" id="Fill-424" fill="#009C3B"></path>
                                    <polyline id="Fill-461" fill="#046A2A" points="140.082655 71.7887297 138 70.3559256 140.573883 70.8059644 140.466269 68.3714175 141.710798 70.4277692 143.38072 68 142.869235 70.651433 144.41635 70.0902401 143.130042 71.4430674 145 73.0100697 142.441309 72.7945391 142.827455 74.6285825 141.652559 73.1225794 140.372581 75 140.527039 72.542409 138.639356 73.1835786 140.082655 71.7887297"></polyline>
                                </g>
                            </g>
                            <rect id="Rectangle-Copy" mask="url(#mask-2)" x="-1" y="-7" width="1440" height="105"></rect>
                        </g>
                    </g>
                </g>
            </g>
        </g>
    </g>
</svg>